<?xml version="1.0" encoding="UTF-8" standalone="no"?>
<!-- Created with Inkscape (http://www.inkscape.org/) -->

<svg
   xmlns:dc="http://purl.org/dc/elements/1.1/"
   xmlns:cc="http://creativecommons.org/ns#"
   xmlns:rdf="http://www.w3.org/1999/02/22-rdf-syntax-ns#"
   xmlns:svg="http://www.w3.org/2000/svg"
   xmlns="http://www.w3.org/2000/svg"
   xmlns:xlink="http://www.w3.org/1999/xlink"
   xmlns:sodipodi="http://sodipodi.sourceforge.net/DTD/sodipodi-0.dtd"
   xmlns:inkscape="http://www.inkscape.org/namespaces/inkscape"
   width="324.98465mm"
   height="260.98193mm"
   viewBox="0 0 1151.5204 924.73912"
   id="svg9416"
   version="1.1"
   inkscape:version="0.91 r13725"
   sodipodi:docname="0003_25022017.svg"
   inkscape:export-filename="/home/edi0th/~. ATELIER/A × Dessins/doigt.png"
   inkscape:export-xdpi="149.97743"
   inkscape:export-ydpi="149.97743">
  <defs
     id="defs9418">
    <linearGradient
       inkscape:collect="always"
       id="linearGradient12097">
      <stop
         style="stop-color:#ff5555;stop-opacity:1"
         offset="0"
         id="stop12099" />
      <stop
         style="stop-color:#ffaaaa;stop-opacity:1"
         offset="1"
         id="stop12101" />
    </linearGradient>
    <linearGradient
       inkscape:collect="always"
       xlink:href="#linearGradient12097"
       id="linearGradient12105"
       x1="621.42859"
       y1="702.36218"
       x2="622.85712"
       y2="1038.0765"
       gradientUnits="userSpaceOnUse" />
  </defs>
  <sodipodi:namedview
     id="base"
     pagecolor="#ffffff"
     bordercolor="#666666"
     borderopacity="1.0"
     inkscape:pageopacity="0.0"
     inkscape:pageshadow="2"
     inkscape:zoom="0.7"
     inkscape:cx="667.10749"
     inkscape:cy="582.64488"
     inkscape:document-units="px"
     inkscape:current-layer="layer1"
     showgrid="false"
     inkscape:window-width="1920"
     inkscape:window-height="999"
     inkscape:window-x="0"
     inkscape:window-y="24"
     inkscape:window-maximized="1"
     showguides="false"
     fit-margin-top="0"
     fit-margin-left="0"
     fit-margin-right="0"
     fit-margin-bottom="0" />
  <metadata
     id="metadata9421">
    <rdf:RDF>
      <cc:Work
         rdf:about="">
        <dc:format>image/svg+xml</dc:format>
        <dc:type
           rdf:resource="http://purl.org/dc/dcmitype/StillImage" />
        <dc:title />
      </cc:Work>
    </rdf:RDF>
  </metadata>
  <g
     inkscape:label="Calque 1"
     inkscape:groupmode="layer"
     id="layer1"
     transform="translate(75.212928,-170.58587)">
    <path
       style="opacity:1;fill:#c6afe9;fill-opacity:1;fill-rule:nonzero;stroke:none;stroke-width:2.44300008;stroke-linecap:round;stroke-linejoin:round;stroke-miterlimit:4;stroke-dasharray:none;stroke-opacity:1"
       d="m 285.87317,172.4106 c -2.53921,0.007 -4.66733,1.80513 -7.07107,2.36881 -5.26755,1.23524 -11.80452,0 -17.17259,0 -11.11168,0 -22.22336,0 -33.33503,0 -15.48901,0 -30.97802,0 -46.46702,0 -7.04325,0 -15.27798,1.35725 -22.22336,0 -1.0503,-0.20525 -1.96566,-1.18441 -3.03046,-1.18441 -0.75292,0 -1.27762,1.03928 -2.0203,1.18441 -8.56973,1.67468 -18.55037,0 -27.27412,0 -6.86273,0 -13.52688,-0.12023 -20.20305,1.1844 -7.452553,1.45637 -17.099011,-2.79237 -24.243661,0 -9.377695,3.66512 -22.524786,7.87537 -31.314729,13.02847 -1.277753,0.74909 -1.805468,2.69145 -3.030458,3.55323 -2.908161,2.0459 -6.066113,3.79376 -9.091373,5.92203 -11.239056,7.9067 -23.216557,12.21237 -31.3147286,24.87254 C 5.8342843,226.85279 2.0737572,229.1681 0,232.81533 c -2.8113993,4.94455 -5.7601573,22.27757 -7.0710678,28.42577 -0.40833,1.91506 0.3301787,3.98634 0,5.92202 -1.3114283,7.68827 -2.4080833,16.03156 -4.0406102,23.68813 -1.416166,6.64184 0.153367,14.49817 -1.010153,21.31932 -0.584547,3.42691 1.010153,6.36549 1.010153,9.47525 0,0.88281 -0.862492,1.50315 -1.010153,2.36881 -1.543336,9.04783 -0.502516,21.92653 1.010153,30.79458 1.2950674,7.59235 -1.295067,16.09577 0,23.68813 1.4673388,8.60228 3.0304576,18.38824 3.0304576,27.24135 0,0.8828 -1.0101525,1.48601 -1.0101525,2.3688 0,1.24849 1.0101525,2.30476 1.0101525,3.55323 0,5.39452 -1.9714676,10.94596 -1.0101525,16.5817 1.1451979,6.71373 1.966105,0.57194 1.0101525,10.65965 -0.5735016,6.05189 -1.9053059,12.65309 -1.0101525,18.9505 0.8110245,5.70558 3.2295856,10.87613 4.0406102,16.5817 0.5888413,4.1425 1.0925588,12.7386 0,16.58168 -0.9599014,3.37647 -1.7546535,-1.68436 -1.0101526,3.55323 1.7378531,12.22582 6.59991801,23.37438 8.0812204,35.5322 1.6500569,13.54286 -1.4624019,26.21557 -3.0304576,39.08541 -1.9602423,16.08872 -2.3159988,32.38377 -4.0406102,48.56067 -0.8850736,8.302 -1.2070943,32.00881 0,39.08542 0.6727024,3.94372 3.5970253,8.37835 3.0304576,13.02847 -0.8480004,6.95998 -4.4101291,13.36048 -6.0609153,20.13491 -4.0688226,16.69747 -6.6010536,34.74667 -12.1218306,50.92949 -1.64464,4.82085 -4.619579,9.14296 -6.060915,14.21287 -1.619841,5.6978 -2.970048,12.2769 -5.050763,17.7661 -0.797406,2.10366 -2.409581,3.73809 -3.030458,5.92203 -0.425917,1.49817 0.326664,3.20556 0,4.73762 -0.365221,1.7129 -1.587603,3.04649 -2.020305,4.73763 -2.81185,10.98967 -3.136814,23.12724 -5.050762,34.34779 -0.336718,1.97401 0.797193,3.92449 1.010152,5.92204 0.813147,7.62733 0,16.01525 0,23.68813 0,8.28345 -1.654792,36.81788 0,42.63864 4.345982,15.28702 21.002788,15.61941 28.284271,28.42575 1.305803,2.29657 7.2338936,15.53074 8.0812208,17.7661 0.5638509,1.4875 0.321352,3.32429 1.0101526,4.73762 0.7087699,1.45432 2.20011732,2.19021 3.0304576,3.55323 5.4250336,8.90521 5.4800452,20.91455 9.0913729,30.79456 -0.5600244,2.93336 2.2775341,2.97202 3.0304581,4.73763 0.883469,2.07174 1.600345,7.01319 2.020305,9.47523 0.871056,5.10662 1.96469,20.06968 5.050762,23.68818 1.074543,1.2598 11.717659,9.5698 14.142136,11.844 4.804384,4.5065 8.327599,10.8908 13.131983,15.3973 10.261118,9.625 24.250592,17.9365 37.375644,20.135 10.842056,1.8161 26.457069,-5.7305 37.375649,-8.291 8.38509,-1.9662 18.74408,1.349 26.26396,3.5533 3.47388,1.0182 8.60452,0 12.12183,0 13.12498,0 27.39514,-1.9069 40.4061,0 20.76558,3.0435 40.61413,4.7028 61.61931,1.1844 8.00649,-1.3412 17.15996,0 25.25381,0 14.29643,0 28.28773,-0.7111 42.42641,-2.3688 18.0208,-2.113 36.4687,1.1844 54.54824,1.1844 22.13177,0 43.70794,-3.9421 65.65991,-5.922 12.02718,-1.0849 24.36523,1.4069 36.36549,0 9.36601,-1.0982 18.17091,-6.1562 27.27412,-8.2909 11.57615,-2.7146 24.52996,-1.1844 36.36549,-1.1844 31.71613,0 64.49865,-2.5049 95.9645,1.1844 11.7658,1.3795 23.67425,-1.0982 35.35534,1.1845 12.12183,2.3687 25.25381,-2.3689 37.37564,0 13.32197,2.6032 26.99132,4.1743 40.4061,5.922 13.23043,1.7236 26.23244,7.7603 39.39595,9.4753 14.05948,1.8315 29.27515,0 43.43656,0 9.35014,0 20.01383,-1.5546 29.29442,0 5.12328,0.8581 10.85319,2.4294 16.16244,1.1843 12.02209,-2.8192 24.3051,-3.5652 36.3655,-5.922 4.71594,-0.9216 10.40208,0 15.15228,0 14.15274,0 37.11897,2.2425 50.50763,0 5.08825,-0.8523 11.19126,-2.2579 16.16246,-3.5532 0.1513,-0.04 6.7881,-3.3366 8.0812,-3.5532 9.2637,-1.5517 19.1393,-1.153 27.2741,-5.9221 5.716,-3.351 10.347,-20.7104 13.132,-27.2413 2.4998,-5.862 5.0519,-11.2538 8.0812,-16.5817 0.7701,-1.3545 0.2959,-3.3418 1.0102,-4.73771 1.3287,-2.59647 3.017,-4.10609 4.0406,-7.1064 1.1857,-3.47554 1.7371,-8.81116 3.0304,-11.84403 0.426,-0.9988 1.6666,-1.33202 2.0204,-2.36882 0.832,-2.43896 0.6355,-6.83962 1.0101,-9.47526 0.6793,-4.7792 2.2215,-9.47043 3.0305,-14.21287 1.1137,-6.52914 0,-14.64175 0,-21.31932 0,-3.74608 0.881,-9.4129 0,-13.02847 -3.0325,-12.44444 -1.2944,2.73826 -3.0305,-9.47525 -0.2078,-1.46194 0.468,-4.55024 0,-5.92204 -1.6882,-4.9485 -3.2412,-9.77378 -4.0406,-15.39728 -1.5251,-10.72876 -0.7317,-30.05836 1.0101,-40.26983 1.8223,-10.68277 0,-26.57067 0,-37.90101 0,-4.944 0.6929,-10.52324 0,-15.39728 -0.9834,-6.91859 -3.4415,-13.11118 -4.0406,-20.13491 -1.0748,-12.60278 -1.5028,-25.3629 -3.0304,-37.90101 -0.7238,-5.94017 1.0101,-12.79519 1.0101,-18.95051 0,-24.47773 0,-48.95548 0,-73.4332 0,-21.00575 1.0102,-41.93873 1.0102,-62.77356 0,-5.76084 0.6924,-12.0832 0,-17.76609 -0.7808,-6.40842 -1.7835,-3.40604 -1.0102,-10.65966 1.7713,-16.61423 1.0102,-34.00099 1.0102,-50.92948 0,-36.81819 -1.0102,-73.3584 -1.0102,-110.14981 0,-8.51719 -1.788,-24.77737 0,-33.16338 1.6064,-7.53385 2.6211,-38.63658 1.0102,-46.19187 -2.8185,-13.21849 -4.7084,-27.60286 -7.0711,-41.45421 -0.8996,-5.27376 1.1109,-11.37169 0,-16.58169 -0.4603,-2.15906 -1.7702,-17.17975 -2.0203,-17.7661 -1.3114,-3.07533 -0.6755,-7.50605 -2.0203,-10.65966 -1.7027,-3.99296 -6.7614,-16.21867 -9.0914,-18.95051 -1.635,-1.9171 -5.436,-5.18934 -7.071,-7.10644 -3.9217,-4.59813 -26.6144,-10.27285 -33.3351,-14.21288 -2.1216,-1.24378 -5.82091,0.88339 -8.08119,0 -3.2228,-1.25958 -8.15182,-1.81798 -11.11168,-3.55323 -1.07042,-0.62752 -2.89603,0.44735 -4.04061,0 -2.99415,-1.17021 -6.0268,-2.65491 -9.09137,-3.5532 -7.13617,-2.0918 -34.15189,0 -42.42641,0 -20.20305,0 -40.4061,0 -60.60915,0 -98.32152,0 -196.64303,0 -294.96454,0 -18.87168,0 -38.16902,1.22676 -56.56855,-2.36882 -14.76092,-2.88453 -30.63467,2.48272 -45.45686,0 -11.65071,-1.9515 -23.42037,-2.36881 -35.35534,-2.36881 -14.81557,0 -29.63114,0 -44.44671,0 -4.37733,0 -8.75466,0 -13.13199,0 -1.05446,0 -9.06806,0 -7.07106,0"
       id="path11904"
       inkscape:connector-curvature="0" />
    <path
       style="opacity:1;fill:#fff6d5;fill-opacity:1;fill-rule:nonzero;stroke:none;stroke-width:2.44300008;stroke-linecap:round;stroke-linejoin:round;stroke-miterlimit:4;stroke-dasharray:none;stroke-opacity:1"
       d="m 760.2686,185.49897 c -0.85434,9.10741 -2.44423,16.40822 -4.01012,24.66282 -0.26733,1.40931 -1.06935,2.11396 -1.3367,3.52326 -0.13284,0.70029 0.13285,1.64855 0,2.34884 -0.66157,3.48757 -2.29116,6.12244 -3.11897,9.39536 -0.78788,3.11501 -1.62227,7.37744 -2.22784,10.56978 -0.85777,4.52176 -3.32208,9.61116 -4.45568,14.09304 -1.56921,6.20416 -2.82257,13.50833 -4.45568,19.96513 -0.44628,1.76443 -1.42548,2.81682 -1.78227,4.69768 -0.76907,4.05422 -2.08722,8.83942 -3.11898,12.91861 -1.43224,5.66263 -3.7947,9.81274 -5.34681,15.26746 -4.04346,14.21022 -8.28511,29.58248 -11.13919,44.62796 -0.5349,2.81968 -2.00479,4.40296 -2.67342,7.04651 -4.04086,15.97627 -9.32747,29.83127 -13.36704,45.80238 -0.79066,3.12601 -2.55794,7.91659 -3.56453,10.56977 -1.64359,4.33213 -0.17979,-2.81243 -1.78228,3.52327 -3.8612,15.26591 -10.32446,26.72651 -14.25818,42.27911 -0.66665,2.63577 -2.13961,4.23259 -2.6734,7.04651 -1.7766,9.36544 -4.9537,17.23648 -7.12909,25.83724 -1.57483,6.22636 -2.74243,14.45692 -4.01011,21.13955 -1.46679,7.73231 -4.27672,14.24706 -6.23795,21.13955 -2.27948,8.01095 -4.42097,16.71141 -6.68351,24.66282 -1.63645,5.75107 -3.71834,10.71878 -5.34682,16.44188 -2.26146,7.94764 -3.38804,15.51146 -4.90124,23.4884 -1.40855,7.42521 -7.067,17.45265 -9.35693,23.48839 -1.98475,5.23136 -3.68576,11.77869 -5.34681,17.6163 -2.43393,8.55372 -7.29431,20.40061 -10.24807,28.18607 -2.82773,7.45329 -5.61204,16.51644 -8.91136,22.31398 -0.89932,1.58025 -5.22593,10.88844 -4.90125,11.74419 0.55015,1.45006 3.89921,-3.9643 4.45568,-4.69768 0.86548,-1.14059 0.44,11.7295 0,10.56978 -0.52511,-1.38406 1.03966,-3.52326 1.78227,-3.52326 0.53551,0 -0.82868,1.90249 -1.3367,2.34884 -1.11784,0.98213 -2.56721,1.03447 -3.56455,2.34885 -0.84191,1.10955 -2.52207,4.2988 -3.11898,5.87209 -0.92189,2.42992 1.40879,-0.095 -0.44555,2.34885 -2.03295,2.67919 -4.2847,4.47233 -6.23796,7.0465 -3.41752,4.50393 -6.79481,15.56079 -9.35693,22.31399 -1.01281,2.66955 -1.59057,7.55178 -1.78226,7.04651 -0.36046,-0.95006 5.02987,-10.40432 5.79238,-11.74419 3.26125,-5.73065 6.2526,-13.14656 9.35693,-19.96513 6.54005,-14.36515 11.44165,-33.43453 17.82271,-48.15123 2.56377,-5.91282 5.46052,-10.65887 8.02022,-16.44187 3.42505,-7.73801 5.80643,-18.35057 9.35692,-25.83723 2.61323,-5.51029 6.11257,-11.24843 8.02024,-18.79072 0.4628,-1.82983 0.80301,-4.93649 1.3367,-7.04651 0.71657,-2.83314 5.05568,-31.30228 4.45567,-32.88376 -0.57406,-1.51313 -10.77778,13.56583 -11.58476,15.26746 -3.61647,7.62578 -7.47257,14.58241 -11.1392,22.31398 -1.5102,3.18446 -3.38068,5.01463 -4.90124,8.22093 -5.6945,12.00755 -11.76308,20.95178 -17.82273,30.53491 -0.54033,0.85452 -0.77309,2.78049 -1.33669,3.52327 -2.84894,3.75457 -5.6075,7.97727 -8.4658,11.74419 -2.31726,3.0539 -4.81434,5.0128 -7.12909,7.04652 -2.65973,2.33683 -5.23132,7.81319 -8.02022,10.56978 -2.63612,2.60558 -5.40197,4.53702 -8.02021,7.04652 -2.47063,2.36801 -4.71187,6.94486 -7.1291,9.39536 -3.77283,3.82475 -7.77432,6.70689 -11.58477,10.56978 -8.0375,8.1481 -15.73933,18.11503 -23.61509,27.01165 -1.70758,1.92891 -3.65497,1.61211 -5.34682,3.52326 -3.84648,4.34507 -8.15129,5.30562 -12.03033,9.39536 -10.27576,10.83386 -22.1011,26.02661 -31.63533,41.10468 -1.75356,2.77323 -3.95707,4.62778 -5.79238,7.04652 -5.10617,6.72939 -9.78358,14.90344 -14.70374,22.31398 -2.37413,3.57584 -6.09942,6.6814 -7.57465,10.56978 -0.37697,0.9936 0.71551,1.65447 0.89114,2.34884 1.06225,4.19979 1.67842,8.5477 2.67341,12.91861 3.04976,13.39752 5.31014,26.81839 8.02022,41.10469 2.19753,11.58444 3.18095,24.90789 5.79237,35.2326 4.48454,17.73038 10.79117,31.04908 14.25818,49.32563 1.73498,9.14603 -3.60977,23.36913 -3.11898,24.66274 1.71122,4.51036 5.00106,6.02986 7.1291,9.3953 4.14431,6.5541 -3.12272,-2.3536 2.22783,4.6977 4.25525,5.608 8.7606,10.4903 13.36704,12.9186 2.85747,1.5064 5.45293,5.9654 8.02022,8.221 5.29915,4.6557 11.37226,7.5637 16.93158,9.3953 3.11765,1.0272 6.19031,4.8288 9.35693,5.8722 10.74868,3.5414 21.66443,-0.037 32.52646,2.3487 3.34176,0.7341 6.22939,3.1244 9.35692,5.8721 2.13,1.8715 4.51513,2.3803 6.68352,3.5234 6.5573,3.4566 12.87544,-36.2267 19.60499,-34.2559 8.19065,2.3987 16.68656,1.1744 24.9518,1.1744 l 39.20998,0 c 13.68021,0 27.54247,2.3125 40.99224,8.2209 3.11635,1.3691 6.63994,0.4167 9.8025,1.1745 5.24453,1.2567 9.34233,-52.85714 16.04045,0 l 32.08088,0 c 0,0 13.36867,0.3919 20.05056,2.3489 5.31438,1.5564 11.13625,0 16.48601,0 l 15.59488,0 c 1.43775,0 3.49902,0.9239 4.90125,0 2.20235,-1.4513 -0.93245,-1.1745 0.89112,-1.1745 1.8618,0 3.5573,1.4055 5.34683,2.3489 3.17091,1.6716 6.70209,-1.1744 9.80249,-1.1744 0.46967,0 0.87343,0.9709 1.33671,1.1744 5.5424,2.4347 12.42026,-0.7524 18.26828,1.1744 2.44175,0.8044 4.69446,3.8955 7.12908,4.6976 1.75195,0.5773 3.59945,-0.6579 5.34682,0 4.90961,1.8487 -8.9884,3.8507 -4.23515,-2.4135 0.83431,-1.0996 27.6057,-12.7391 28.29582,-16.3772 3.72414,-19.6321 5.30519,3.2046 6.68352,-18.593 0.1465,-2.317 -0.14651,-4.72964 0,-7.04656 0.49943,-7.8984 1.7921,-15.44874 2.22784,-23.4883 0.25991,-4.79555 -0.34656,-2.74032 0,-8.22094 0.42535,-6.72685 1.39867,-13.40869 2.22783,-19.96514 0.18787,-1.48554 -0.14409,-3.17853 0,-4.69767 0.23522,-2.47974 1.07048,-5.41396 1.3367,-8.22094 1.56443,-16.4939 4.37756,-34.5786 7.57467,-49.32564 0.68418,-3.15587 0.71933,-7.31526 1.33669,-10.56977 1.3926,-7.3411 2.34547,-14.81644 3.56455,-22.31398 0.35988,-2.21328 0.97683,-3.65882 1.3367,-5.87209 0.61678,-3.7933 0.99716,-9.2972 1.78228,-12.91862 1.28792,-5.94072 2.83276,-11.40982 4.01009,-17.61631 2.15526,-11.36155 3.46728,-23.67311 5.34685,-35.23259 1.70968,-10.51494 3.62318,-21.10884 5.34678,-31.70932 0.4219,-2.5947 1.3845,-4.42547 1.7823,-7.04652 0.1655,-1.09043 -0.1224,-2.39403 0,-3.52326 0.428,-3.9489 1.5512,-7.00293 2.2279,-10.56978 1.7983,-9.48003 2.7185,-20.20309 4.4556,-29.36049 0.544,-2.86773 -0.8527,0.97195 -0.8911,1.17441 -0.2739,1.44369 -0.4456,6.31177 -0.4456,4.69768 0,-12.83762 -1.2811,-23.92953 -2.2278,-36.40701 -0.6232,-8.21281 -0.6065,-16.40873 -0.8911,-24.66281 -0.2874,-8.33069 -1.2333,-17.97271 -2.2279,-25.83725 -0.2101,-1.66088 -0.7609,-2.98096 -0.8911,-4.69767 -0.5156,-6.79494 -0.013,-14.29971 -0.4456,-21.13956 -1.1074,-17.51313 0.1683,5.74148 -0.8912,-8.22093 -0.2829,-3.72907 0.4456,-7.18713 0.4456,-10.56978 0,-1.23795 -0.3791,-2.29775 -0.4456,-3.52325 -0.7277,-13.42768 0.1262,-28.34096 1.3368,-41.1047 0.3834,-4.04298 0.2551,-8.3915 0.8911,-11.7442 0.3321,-1.75071 -0.105,-3.9344 0,-5.8721 0.6653,-12.27451 0.4455,-25.02324 0.4455,-37.58143 0,-3.99771 -0.2987,-8.9813 0,-12.91862 0.206,-2.71366 0.6514,-4.51784 0.8912,-7.04652 0.244,-2.57294 -0.4482,-7.03253 0,-9.39536 1.1232,-5.92096 1.8794,-12.51197 2.6734,-18.79071 0.6122,-4.8406 -0.3842,-13.24212 0.4456,-17.6163 0.4559,-2.40338 1.7822,-20.28184 1.7822,-23.4884"
       id="path12025"
       inkscape:connector-curvature="0"
       sodipodi:nodetypes="csccssssssssssssssssssssssssscsssssssscsssssssssssscssssssssssssssssssssccscccccssscscccsscssscccccsssssssssssssssssscscsscccccsccscscscccc" />
    <path
       style="opacity:1;fill:#e3d7f4;fill-opacity:1;fill-rule:nonzero;stroke:none;stroke-width:2.44300008;stroke-linecap:round;stroke-linejoin:round;stroke-miterlimit:4;stroke-dasharray:none;stroke-opacity:1"
       d="m 759.81525,182.92598 c -0.86872,66.79049 -1.01016,133.46056 -1.01016,200.46315 0,8.03613 -1.69763,45.14714 1.01016,46.36562 6.5703,2.95663 14.25471,3.10632 21.2132,5.45479 4.18258,1.41161 11.30774,-2.59505 15.15229,0 5.57099,3.76039 24.50614,5.623 31.31473,4.09108 1.0503,-0.23631 1.96566,-1.36369 3.03045,-1.36369 1.86133,0 1.47317,2.06447 3.03046,1.36369 3.5513,-1.59806 34.26809,-1.39839 37.37565,0 6.40891,2.884 12.14836,8.19411 18.18274,10.90956 7.89742,3.55382 33.36276,1.36371 45.45687,1.36371 2.95545,0 12.09915,2.75801 12.12185,2.72738 0.4669,-0.63039 -0.305,-3.26772 0,-4.09109 3.6726,-9.91592 -0.016,-21.7336 2.0203,-32.72868 1.6189,-8.74201 -1.0726,-20.20261 1.0101,-28.63758 1.9224,-7.7855 0,-31.59668 0,-42.27455 0,-17.27347 0,-34.54693 0,-51.82041 0,-7.25327 -1.0504,-16.09209 0,-23.18281 1.8182,-12.27232 3.4741,-24.04847 5.0508,-36.81976 0.2109,-1.70828 -1.3837,-46.01058 -2.0203,-47.72933 -0.4881,-1.31792 -3.0644,-4.79581 -4.0406,-5.45477 -1.4641,-0.98825 -5.7933,1.86492 -7.0711,2.72739 -4.2256,2.85225 -12.94816,-1.3637 -17.17258,-1.3637 -2.42334,0 -15.6086,-2.93274 -18.18275,-4.09108 -6.67437,-3.00346 -19.89927,1.3637 -27.27411,1.3637 -22.8968,0 -45.79359,0 -68.69038,0 -10.9318,0 -41.22533,-3.53812 -50.50762,2.72738 z"
       id="path12021"
       inkscape:connector-curvature="0" />
    <path
       style="opacity:1;fill:#5a2ca0;fill-opacity:1;fill-rule:nonzero;stroke:none;stroke-width:2.44300008;stroke-linecap:round;stroke-linejoin:round;stroke-miterlimit:4;stroke-dasharray:none;stroke-opacity:1"
       d="m -18.182746,644.26057 c 5.424161,-1.35536 8.2040478,2.04487 13.1319833,3.03046 5.75813464,1.15163 17.2115017,2.483 23.2335087,3.03046 28.429148,2.58447 57.283392,3.03046 85.862964,3.03046 15.34855,0 31.23112,-1.38508 46.46702,0 16.10989,1.46453 32.22647,0 48.48732,0 20.89928,0 41.65175,1.01015 62.62946,1.01015 17.17259,0 34.34519,0 51.51778,0 9.76481,0 19.59917,-1.16343 29.29442,0 4.46037,0.53524 8.69604,2.32071 13.13199,3.03046 16.71405,2.67425 33.76248,2.95762 50.50762,5.05076 10.34186,1.29273 13.26857,0.31275 23.23351,3.03046 7.72167,2.10591 14.50169,6.98546 22.22336,9.09137 3.58812,0.97858 7.52356,0.0316 11.11168,1.01015 3.92521,1.07052 7.19964,3.93304 11.11167,5.05077 6.22769,1.77933 12.9523,1.29695 19.1929,3.03045 22.86609,6.35169 46.28957,9.45995 69.70053,14.14214 7.22238,1.44448 15.14665,3.12075 22.22335,5.05076 1.45279,0.39622 2.57973,1.65509 4.04061,2.02031 1.30666,0.32666 2.69374,0 4.04061,0 1.68359,0.33671 3.39434,0.5584 5.05077,1.01015 7.31875,1.99602 14.96224,3.07046 22.22335,5.05076 4.46156,1.21679 8.5103,3.01357 13.13199,4.04061 13.27479,2.94996 27.02346,4.14911 40.4061,6.06092 6.95629,0.99375 14.23295,0.13762 21.2132,1.01015 6.76109,0.84514 13.50576,3.20345 20.20305,4.04061 8.45442,1.0568 17.73681,0 26.26397,0 21.54992,0 43.09984,0 64.64976,0 4.35357,0 24.31895,-0.28652 26.26397,1.01015 1.58486,1.05657 2.40729,3.06062 4.04061,4.04061 3.76204,2.25723 9.11619,5.28628 13.13198,7.07107 1.26867,0.56385 2.83521,0.32135 4.04061,1.01015 1.24035,0.70877 1.8876,2.17332 3.03046,3.03046 5.99423,4.49568 13.05637,8.03082 19.1929,12.12183 4.49318,2.99546 12.06156,4.35724 17.17259,6.06092 4.60312,1.53437 10.5146,-0.81113 14.14214,-2.02031 0.94375,-0.31458 14.21311,1.01015 17.17259,1.01015 5.17537,0 11.11993,-2.27078 16.16244,-1.01015 5.63079,1.4077 13.204,3.88602 19.1929,3.03046 7.05406,-1.00772 18.12998,-2.79111 25.25381,-1.01015 7.47107,1.86776 15.68627,2.53502 23.23347,5.05076 12.2983,4.09943 24.2543,8.59161 35.3554,14.14214 2.6825,1.34123 6.4117,1.69065 9.0914,3.03045 4.7053,2.35267 19.8493,-5.22762 22.2233,-4.04061 2.0998,1.04991 1.0102,7.98542 1.0102,10.10153 0,2.87337 -1.5327,6.1656 -2.0203,9.09137 -0.4599,2.75906 0.8792,6.4536 0,9.09137 -0.2381,0.71429 -1.0102,1.26739 -1.0102,2.02031 0,0.75292 0.8275,1.28986 1.0102,2.0203 0.8068,3.2274 1.0101,15.55719 1.0101,19.1929 0,2.4671 -1.4734,4.75483 -1.0101,7.07107 1.8938,9.46941 2.7889,33.5326 1.0101,42.42641 -1.8822,9.41079 -3.7587,19.07547 -6.0609,28.28427 -0.5739,2.29575 -2.453,4.76123 -3.0305,7.07107 -0.4083,1.63332 0.5324,3.45357 0,5.05076 -0.6873,2.06204 -2.3498,4.01919 -3.0304,6.06091 -0.8659,2.59758 -0.4726,5.39315 -1.0102,8.08122 -0.6431,3.21551 -2.3854,5.86626 -3.0304,9.09138 -1.8238,9.11892 -2.1667,17.61183 -5.0508,26.26396 -1.7195,5.1586 1.3232,11.87977 0,17.1726 -1.515,6.06017 -4.0672,12.20171 -6.0609,18.18271 -2.1641,6.4924 -15.3998,17.6676 -19.1929,25.2539 -0.6061,1.2121 -2.4244,1.8182 -3.0305,3.0304 -3.8287,7.6574 -15.6569,19.3611 -24.2436,22.2234 -24.53113,8.177 -50.59822,7.071 -76.77162,7.071 -16.83032,0 -33.87433,0.6532 -50.50763,-1.0101 -5.79986,-0.58 -11.37738,1.0101 -17.17259,1.0101 -14.14214,0 -28.28427,0 -42.42641,0 -6.48831,0 -13.76494,-0.9197 -20.20305,0 -1.05409,0.1506 -1.96566,1.0102 -3.03046,1.0102 -1.06479,0 -1.96566,-1.0102 -3.03045,-1.0102 -3.58563,0 -7.38898,1.0102 -11.11168,1.0102 -5.92857,0 -11.42489,-0.052 -17.1726,-1.0102 -4.92578,-0.8209 -10.0313,1.5792 -15.15228,1.0102 -24.51646,-2.7241 -49.99361,-1.0102 -74.75129,-1.0102 -23.57023,0 -47.14045,0 -70.71068,0 -2.69374,0 -5.42413,0.4429 -8.08122,0 -2.11805,-0.353 -5.50619,-3.8888 -8.08122,-3.0304 -3.47717,1.159 -6.19776,3.39 -10.10153,4.0406 -7.95831,1.3264 -17.16544,0 -25.25381,0 -19.86633,0 -39.73267,0 -59.599,0 -11.14113,0 -21.45698,0.4677 -32.32488,2.0203 -8.37889,1.197 -17.02561,-1.0102 -25.25382,-1.0102 -1.06479,0 -1.97636,0.8596 -3.03045,1.0102 -7.98257,1.1404 -17.20054,0 -25.25382,0 -19.86633,0 -39.73266,0 -59.599,0 -41.75297,0 -83.50594,0 -125.25891,0 -14.14214,0 -28.28427,0 -42.42641,0 -6.44896,0 -13.81791,0.9122 -20.20305,0 -6.89514,-0.985 -14.29493,-5.0508 -21.2132,-5.0508 -2.03165,0 -3.16086,-1.5478 -5.05077,-2.0203 -1.34687,-0.3367 -5.0223,-0.028 -4.04061,-1.0101 3.18582,-3.1858 4.34369,3.3335 3.03046,2.0203 -0.75292,-0.7529 -0.37128,-2.1786 -1.01015,-3.0305 -3.36199,-4.4826 -0.80205,0.4755 -3.03046,-1.0101 -9.92548,-6.617 -22.7957,-9.812 -34.345186,-12.1219 -3.983737,-0.7967 -8.12365,-0.3438 -12.121831,-1.0101 -5.177321,-0.8629 -10.494088,-4.5082 -15.152288,-6.0609 -1.479365,-0.4932 -3.53653,0.3785 -5.050762,0 -7.104791,-1.7762 -14.045706,-5.2792 -21.213204,-7.0711 -6.258979,-1.5647 -12.614724,-2.3489 -18.182746,-6.0609 -7.8655302,-5.2437 -15.0687029,-12.7396 -23.2335083,-18.1828 -6.1303997,-4.0869 -14.9000777,-7.70287 -19.1928987,-14.1421 -6.088099,-9.13215 -7.413019,-20.56071 -10.101525,-31.31473 -1.185446,-4.74179 0.805313,-10.32041 0,-15.15229 -0.701117,-4.2067 -2.201783,-7.97846 -3.030458,-12.12183 -0.58278,-2.9139 0.582781,-6.17747 0,-9.09137 -1.742484,-8.71242 -5.050885,-17.17309 -7.071068,-25.25382 -0.96326,-3.85304 0.266219,-2.07502 1.010153,-5.05076 1.34538,-5.38152 -1.088383,-11.73068 0,-17.17259 0.537332,-2.68666 2.562762,-5.27505 3.030458,-8.08122 1.859958,-11.15975 6.27235,-22.05895 9.091373,-33.33504 0.520264,-2.08106 -0.644373,-3.22186 -1.010153,-5.05076 -0.934339,-4.6717 -0.720241,-10.83084 0,-15.15229 2.078006,-12.46803 -0.701458,-25.78713 2.020305,-39.39595 0.841794,-4.20897 -0.841794,-8.92301 0,-13.13198 1.139833,-5.69916 3.763879,-24.70035 6.060915,-29.29442 0.770469,-1.54094 2.277185,-2.53407 3.030458,-4.04061 1.437571,-2.87515 2.051715,-8.17545 3.030458,-11.11168 0.876268,-2.62881 -0.335056,-5.04578 -1.010153,-7.07107 -1.111159,-3.33348 0.854737,-7.69273 0,-11.11168 -2.050169,-8.20067 -4.708665,-35.02938 -1.010152,-42.42641 2.720727,-5.44145 -3.136282,-5.95509 3.030457,-12.12183 z"
       id="path11906"
       inkscape:connector-curvature="0" />
    <path
       style="opacity:1;fill:#8d5fd3;fill-opacity:1;fill-rule:nonzero;stroke:none;stroke-width:2.44300008;stroke-linecap:round;stroke-linejoin:round;stroke-miterlimit:4;stroke-dasharray:none;stroke-opacity:1"
       d="m 538.82176,692.3622 c -18.7103,13.71675 -44.15818,15.3764 -66.6032,21.42858 -31.37314,8.45959 -62.29396,14.31697 -93.84997,18.57142 -14.90753,2.00987 -30.38369,1.28133 -45.41127,2.85715 -6.91266,0.72487 -14.33558,-1.07846 -21.19193,0 -2.68023,0.42158 -4.88833,2.43556 -7.56855,2.85714 -8.04931,1.2661 -17.81952,0.99003 -25.73305,2.85714 -5.00654,1.18124 -10.05938,3.48703 -15.1371,4.28572 -5.18649,0.81579 -11.56804,0.22935 -16.6508,1.42857 -17.49551,4.12787 -35.38045,10.08889 -52.97982,12.85714 -7.41974,1.16707 -14.01056,5.44849 -21.19193,7.14286 -6.83573,1.61281 -14.23379,2.97235 -21.19193,4.28571 -4.21911,0.79636 -6.66292,3.04844 -10.59596,4.28572 -14.81012,4.65904 -31.39874,10.41498 -46.924987,12.85714 -4.572593,0.71923 -9.041505,2.13645 -13.62338,2.85714 -2.986229,0.46971 -6.145225,-0.69296 -9.082257,0 -11.948248,2.81906 -24.075738,8.34799 -36.32902,10 -17.122526,2.3085 -32.5252745,6.84979 -48.438694,12.85715 -3.951081,1.49154 -10.219256,1.25081 -13.623383,2.85714 -12.366659,5.83555 -25.302122,23.87902 -34.815311,32.85714 -5.42115,5.11624 0.07145,14.15085 -3.027419,20 -2.309712,4.35961 -5.214993,8.41479 -7.568546,12.85714 -2.277196,4.29824 -3.463524,38.76527 -1.513708,44.28572 1.555285,4.40343 2.876173,9.57178 4.541127,14.28571 1.704545,4.82603 -2.397492,12.61757 0,17.14286 2.101424,3.96646 3.895942,8.7822 6.054837,12.85714 5.378569,10.15211 17.370145,17.07206 22.705637,27.14286 4.574567,8.63451 12.389923,28.74771 21.191929,34.28571 11.5963282,7.296 26.3502154,8.7656 39.356439,12.8571 4.091289,1.2871 8.664687,4.9754 12.109674,7.1429 4.918386,3.0945 34.292716,8.8832 42.383854,11.4286 2.604022,0.8191 6.443321,-0.4982 9.082256,0 12.38024,2.3367 27.082812,-1.4673 39.356442,1.4285 17.22342,4.0637 37.98393,1.4286 56.00723,1.4286 4.26382,0 6.38224,0.4344 10.59597,1.4286 3.11146,0.7341 0.0126,-1.4286 4.54113,-1.4286 1.12825,0 1.93285,1.1703 3.02742,1.4286 11.55712,2.7267 52.98489,0 68.11691,0 2.57281,0 4.99574,1.4285 7.56855,1.4285 1.12824,0 1.92108,-1.2197 3.02741,-1.4285 11.08074,-2.0915 24.91756,0 36.32903,0 28.76046,0 57.52094,0 86.28142,0 17.60662,0 45.63679,2.5835 62.06208,0 22.09352,-3.4752 44.2841,-6.4894 66.6032,-10 7.98064,-1.2553 31.40069,-1.8771 39.35644,0 1.09456,0.2582 1.89917,1.4285 3.02742,1.4285 1.12824,0 1.95706,-1.0918 3.02741,-1.4285 2.98745,-0.9398 5.12948,1.4285 7.56855,1.4285 0.71357,0 0.80014,-1.4285 1.51371,-1.4285 5.68153,0 5.12302,1.2912 10.59596,0 9.48052,-2.2369 20.60859,1.5203 30.27419,0 12.99692,-2.0444 25.2682,-5.6046 37.84273,-8.5715 3.05661,-0.7211 6.14011,-0.04 9.08225,-1.4285 12.73455,-6.0092 25.2087,-12.6097 37.84273,-18.5715 3.8958,-1.8383 6.7467,-5.3264 10.59597,-7.1428 1.61462,-0.7619 4.44021,0.7619 6.05484,0 11.27634,-5.3211 31.42736,-4.8299 42.38385,-10 5.73992,-2.7086 15.43435,1.2883 21.19193,-1.4286 19.1028,-9.0142 41.65747,-25.02872 57.52095,-39.99997 6.93839,-6.54815 16.68441,-12.90473 22.70563,-21.42857 10.7364,-15.19879 22.39814,-31.0658 34.81531,-45.71428 6.33832,-7.47727 13.70883,-13.01842 18.16452,-21.42858 6.59548,-12.44903 8.91862,-26.67957 13.62338,-40 1.24307,-3.51946 1.2301,-8.0361 3.02742,-11.42857 4.30791,-8.13123 9.29084,-16.10799 13.62338,-24.28571 1.6028,-3.0253 4.99118,-5.13519 6.05484,-7.14286 1.46397,-2.76326 4.40071,-4.15319 6.05483,-5.71428 0.988,-0.93244 2.34087,-4.41842 3.02742,-5.71429 2.32236,-4.38347 16.00939,-16.53752 19.67822,-20 0.97421,-0.91941 7.1901,-7.50002 6.05484,-8.57143 -2.78943,-2.63254 -23.90225,-1.42857 -30.27418,-1.42857 -6.43876,0 -9.90118,-1.815 -15.13709,-4.28571 -3.53307,-1.66718 -8.45134,1.42857 -12.10968,1.42857 -2.21669,0 -11.47539,-1.72788 -12.10968,-1.42857 -4.83397,2.28104 -11.98565,-0.77281 -16.65079,1.42857 -0.63824,0.30117 -0.80014,1.42857 -1.51371,1.42857 -0.10852,0 -10.07031,-15.46624 -13.62339,-17.14286 -7.23702,-3.41499 -17.09605,-0.92439 -24.21934,-4.28571 -5.56001,-2.62365 -9.40675,-8.72455 -15.13709,-11.42857 -2.89473,-1.36596 -6.14768,-1.47239 -9.08226,-2.85715 -5.94986,-2.80761 -21.06158,0.65278 -25.73306,2.85715 -3.96909,1.87292 -42.57772,0 -49.9524,0 -7.37468,0 -45.98331,1.87292 -49.9524,0 -3.20502,-1.51238 -7.55546,0.006 -10.59597,-1.42858 -9.60479,-4.53229 -20.72965,-6.92472 -30.27418,-11.42857 -2.22301,-1.04899 -5.18623,-0.30441 -7.56855,-1.42857 -6.86215,-3.23809 -18.8709,3.2381 -25.73305,0 -0.68089,-0.32129 -35.90378,-8.57143 -36.32903,-8.57143 -5.36484,0 -24.94482,1.80052 -28.76047,0 -12.82471,-6.0517 -23.63477,-5.21922 -37.84273,-8.57143 z"
       id="path12060"
       inkscape:connector-curvature="0" />
    <path
       style="opacity:1;fill:#d5fff6;fill-opacity:1;fill-rule:nonzero;stroke:none;stroke-width:2.44300008;stroke-linecap:round;stroke-linejoin:round;stroke-miterlimit:4;stroke-dasharray:none;stroke-opacity:1"
       d="m 113.13672,551.15625 c 0.0936,3.58055 -0.0509,6.91968 1.00976,10.10156 0.92632,2.77898 2.76923,6.54629 4.04102,9.08985 1.04286,2.08574 -0.56978,5.80294 0,8.08203 1.53003,6.12012 2.03836,15.09782 0,21.21289 -1.84669,5.54005 0,20.8688 0,27.27344 0,2.58295 -1.19894,20.83651 -1.00977,21.21484 2.95279,5.90559 11.12662,8.09536 15.15235,12.12109 2.00171,2.00171 2.94675,4.8818 4.04101,7.07032 1.96349,3.92697 7.10373,9.12325 9.0918,11.11132 1.61921,1.61921 4.24076,0.10182 6.06055,1.01172 7.03572,3.51786 14.41285,4.68006 21.21289,8.08008 0.9695,0.48475 3.07091,-0.32336 4.04101,0 1.51452,0.50484 2.68563,2.12896 4.03907,3.03125 1.61488,1.07658 5.15305,1.05995 7.07226,2.01953 6.38545,3.1927 11.97825,6.99986 18.18164,10.10156 2.58063,1.2903 7.2983,-0.7009 10.10157,0 5.09113,1.2727 9.914,2.73142 15.15234,4.04102 1.6082,0.402 4.56665,-0.748 6.0625,0 2.53237,1.26615 6.8363,2.02291 10.72851,2.88672 6.74122,3.71647 12.61745,8.93691 19.57422,11.25586 3.14256,1.0475 9.77505,2.01953 13.13282,2.01953 1.06479,0 1.96645,-1.00977 3.03125,-1.00977 0.75292,0 1.27685,0.88597 2.01953,1.00977 6.65195,1.1087 41.35381,1.36833 48.48828,-1.00977 5.02271,-1.6743 15.37993,0.15684 21.21289,-1.00976 9.06547,-1.8131 19.21773,1.8131 28.2832,0 5.76607,-1.1532 11.0661,-3.51255 16.16211,-6.06055 0.80812,-0.4041 2.22312,0.404 3.03125,0 2.90279,-1.4514 5.84751,-3.96938 9.0918,-5.05078 1.32756,-0.4425 2.89125,-0.24522 4.04101,-1.01172 0.79243,-0.5283 1.1677,-1.59363 2.01953,-2.01953 5.77664,-2.8884 13.94655,-3.88453 19.19336,-8.08203 9.3172,-7.45372 1.50358,-34.81343 5.05079,-45.45508 3.94363,-11.83087 8.86757,-22.17472 10.10156,-35.35547 l -1.42774,0.53906 c -0.094,-4.27103 -1.60351,-8.78713 -1.60351,-12.66211 0,-1.93398 1.23042,-11.67975 1.00976,-12.12109 -3.31089,-6.62177 -11.25626,-11.2086 -17.17187,-15.15234 -5.74563,-3.83042 -10.436,-9.31542 -16.16211,-13.13281 -4.45966,-2.97312 -8.91605,-5.88285 -12.12305,-9.08985 l -291.93359,-5.05078 z"
       transform="translate(0,308.26772)"
       id="path11898"
       inkscape:connector-curvature="0" />
    <path
       style="opacity:1;fill:#80ffe6;fill-opacity:1;fill-rule:nonzero;stroke:none;stroke-width:2.44300008;stroke-linecap:round;stroke-linejoin:round;stroke-miterlimit:4;stroke-dasharray:none;stroke-opacity:1"
       d="m 131.31983,878.61596 c -1.32586,16.56245 -3.03046,31.5041 -3.03046,48.48732 0,1.75593 -0.79464,5.48178 0,7.07107 1.71949,3.43898 5.743,6.1173 7.07107,10.10153 2.06213,6.18639 2.13402,12.34925 5.05076,18.18274 1.99443,3.98886 14.83274,18.07623 18.18275,19.1929 11.16419,3.7214 25.82869,-8.22082 30.30458,-17.17259 4.62241,-9.24482 2.20503,-19.56235 6.06091,-27.27412 0.94281,-1.88562 -0.94281,-5.18545 0,-7.07107 1.53929,-3.07857 3.03046,-7.51418 3.03046,-11.11168 0,-4.30153 2.0203,-7.97078 2.0203,-12.12183 0,-2.0203 0,-4.04061 0,-6.06091 0,-0.33672 -0.33671,-1.01015 0,-1.01015 1.63373,0 4.02686,8.10872 2.02031,12.12183 -0.47619,0.95238 -0.25723,3.78338 -1.01015,3.03045 -0.33672,-0.33671 1.01015,-1.48634 1.01015,-1.01015 0,1.0648 -1.01015,1.96566 -1.01015,3.03046 0,0.75292 1.54255,1.48791 1.01015,2.0203 -0.33672,0.33672 -1.48634,-1.01015 -1.01015,-1.01015 2.11947,0 3.61248,4.34842 4.04061,6.06092 1.21323,4.85291 1.01015,10.00863 1.01015,15.15228 0,4.7221 -2.01033,12.10189 -4.04061,16.16245 -0.90521,1.8104 1.20991,25.65332 2.0203,27.27411 1.2351,2.4702 1.13733,4.42214 2.02031,7.07107 1.44164,4.32493 6.30416,9.33462 9.09137,12.12186 1.23035,1.2304 0.47318,2.2569 2.02031,3.0305 4.01453,2.0072 10.23448,-0.9437 14.14213,1.0101 2.42414,1.2121 4.66619,2.8382 7.07107,4.0406 1.61624,0.8082 2.42437,3.2325 4.04061,4.0406 2.69374,1.3469 7.40779,-1.3468 10.10153,0 1.61697,0.8085 7.21278,2.9596 9.09137,2.0204 0.85183,-0.426 1.34687,-1.3469 2.0203,-2.0204 1.87052,-1.8705 2.95787,-3.8954 4.04061,-6.0609 2.07982,-4.1596 7.96236,-4.813 10.10153,-9.09139 8.28027,-16.56053 14.14214,-24.68038 14.14214,-45.45686 0,-3.45531 -0.60389,-6.25853 -2.02031,-9.09137 -1.21931,-2.43863 1.29349,-15.8791 0,-17.1726 -0.23809,-0.23809 -1.01015,0.33672 -1.01015,0 0,-1.34969 9.00729,-1.55727 10.10152,-1.01015 3.12598,1.56299 2.13904,15.80625 2.02031,16.16244 -0.38557,1.1567 -1.47872,2.95744 -2.02031,4.04061 -1.37503,2.75006 -2.68244,5.36489 -4.04061,8.08122 -0.48827,0.97654 -0.48827,7.10468 0,8.08122 3.95243,7.90486 1.1217,18.40583 4.04061,24.24366 1.81565,3.6313 -0.56244,14.47522 1.01016,19.19292 0.21752,0.6526 11.4587,11.4587 13.13198,13.132 2.77428,2.7743 16.22601,-1.0101 20.20305,-1.0101 2.07726,0 2.34035,0.16 4.04061,1.0101 5.102,2.551 21.35127,-2.0893 25.25381,-4.0406 7.72863,-3.8643 13.63141,-20.1918 17.1726,-27.27416 1.24504,-2.49009 1.39155,-9.85418 3.03045,-13.13199 1.75094,-3.50186 -1.75093,-9.63012 0,-13.13198 1.05313,-2.10625 2.02031,-4.42445 2.02031,-7.07107 0,-2.24534 0.28191,-2.86603 1.01015,-5.05076 0.63663,-1.90987 -2.58687,-18.46603 4.04061,-15.15229 3.07637,1.53818 1.01016,11.46419 1.01016,15.15229 0,2.20205 -0.96345,7.16449 0,9.09137 0.21295,0.42592 1.01015,0.53397 1.01015,1.01016 0,0.47619 -0.7972,0.58423 -1.01015,1.01015 -1.61145,3.22289 0.0914,22.5888 1.01015,26.26396 0.94051,3.76206 0,2.53312 0,6.06092 0,1.55328 2.0203,4.27849 2.0203,6.06091 0,0.67344 -0.30117,1.41799 0,2.02029 0.42592,0.8519 2.97269,2.0204 2.02031,2.0204 -0.75293,0 -1.26738,-1.0102 -2.02031,-1.0102 -1.21405,0 1.81641,2.0203 3.03046,2.0203 0.47619,0 -1.48634,-1.0101 -1.01015,-1.0101 3.17358,0 5.18758,0.068 7.07107,1.0101 3.31668,1.6584 14.7522,7.4712 18.18274,4.0406 2.84433,-0.063 0.25723,-2.2775 1.01015,-3.0304 3.71831,-3.7183 -1.698,3.7183 2.02031,0 0.84179,-0.8418 1.17851,-2.1887 2.0203,-3.0305 1.65991,-1.6599 5.60884,-2.5784 7.07107,-4.04064 0.70228,-0.70228 -0.52685,-12.12183 0,-12.12183 0.33672,0 0,1.34687 0,1.01015 0,-3.70893 -1.3244,-17.55424 0,-20.20305 1.47744,-2.95488 -0.41118,-7.25884 1.01015,-10.10152 1.78135,-3.5627 2.23541,-7.50127 4.04061,-11.11168 0.2953,-0.59059 0.2953,-22.64292 0,-23.23351 -0.46824,-0.93649 -0.52763,-5.57839 -1.01015,-6.06091 -1.89509,-1.89509 -4.04061,-5.74472 -4.04061,-10.10153"
       id="path11908"
       inkscape:connector-curvature="0" />
    <path
       style="opacity:1;fill:#aaffee;fill-opacity:1;fill-rule:nonzero;stroke:none;stroke-width:2.44300008;stroke-linecap:round;stroke-linejoin:round;stroke-miterlimit:4;stroke-dasharray:none;stroke-opacity:1"
       d="m 110.10663,515.9712 c -0.0754,5.18525 0.59941,10.3236 -1.01016,15.15229 -0.14361,0.43083 1.01016,11.09783 1.01016,13.13198 0,13.13199 0,26.26397 0,39.39595 0,44.70059 1.01015,88.67973 1.01015,133.34014 0,8.50329 -3.03046,16.71374 -3.03046,25.25381 0,12.45855 0,24.9171 0,37.37565 0,5.15646 0.84469,11.09432 0,16.16244 -1.41514,8.49086 -6.93719,27.8096 -5.05076,35.35533 0.46574,1.86296 1.28671,2.57342 2.0203,4.04062 0.67344,1.34687 -0.67343,3.70389 0,5.05076 1.26088,2.52174 2.17483,5.51432 3.03046,8.08122 1.16331,3.48992 0.46212,7.99529 2.02031,11.11168 2.73576,5.47152 17.9329,18.56289 23.23351,21.2132 5.16856,2.58428 7.96342,9.53755 13.13198,12.12183 6.32431,3.16216 12.69946,7.86496 19.1929,11.11168 1.86408,0.93204 5.26994,0.10959 7.07107,1.01015 11.44034,5.72017 22.541,11.21756 34.34518,15.15229 3.54368,1.18123 7.73857,0.89594 11.11168,2.0203 4.8331,1.61104 9.82125,4.72816 15.15229,6.06092 3.57062,0.89266 7.4818,1.11284 11.11168,2.0203 1.46088,0.36523 2.57972,1.65509 4.04061,2.02031 0.97999,0.245 2.12695,-0.45175 3.03045,0 2.87043,1.43521 4.99291,3.01117 8.08122,4.04061 2.3776,0.79253 5.67287,0.20737 8.08122,1.01015 8.03994,2.67998 16.8834,4.97847 25.25382,7.07107 1.90146,0.47537 4.15945,-0.47537 6.06091,0 2.03701,0.50925 4.74359,1.55481 7.07107,2.02031 4.52094,0.90418 12.09281,-2.03482 16.16244,0 5.12396,2.56197 48.24268,4.85938 55.55839,3.03045 8.50915,-2.12728 17.10904,-4.35614 25.25382,-7.07107 1.27775,-0.42591 2.73395,0.32667 4.04061,0 4.95928,-1.23982 17.28969,-3.089 21.2132,-5.05076 8.6077,-4.30385 16.97373,-8.99194 25.25381,-13.13198 4.91639,-2.4582 3.64254,-10.31554 5.05077,-13.13198 2.45597,-4.91195 2.61085,-10.44343 4.04061,-16.16244 0.63382,-2.53529 -0.63383,-5.54594 0,-8.08123 1.0067,-4.02682 3.31982,-8.65995 5.05076,-12.12183 0.50336,-1.00673 1.34987,-12.47054 2.0203,-15.15228 1.29722,-5.18889 -2.13312,-16.94695 0,-21.21321 2.00619,-4.01238 3.48443,-11.46342 5.05077,-16.16244 0.30117,-0.90351 1.49202,-1.22787 2.0203,-2.0203 1.76529,-2.64794 0.37757,-1.76529 2.02031,-5.05077 1.43706,-2.87413 4.43208,-5.3665 6.06091,-8.08122 4.36389,-7.27314 9.69084,-16.72878 11.11168,-25.25381 0.88349,-5.30096 0.23618,-12.18727 -1.01015,-17.17259 -1.17386,-4.69541 -0.43463,-12.83826 1.01015,-17.1726 1.42243,-4.26728 -1.01015,-11.20908 -1.01015,-15.15228 0,-1.98995 1.01015,-4.70245 1.01015,-7.07107 0,-2.07977 -1.01015,-2.97099 -1.01015,-5.05076 0,-4.24859 3.16579,-9.76805 4.04061,-14.14214 0.38852,-1.9426 -0.38852,-4.11831 0,-6.06092 0.74417,-3.72088 2.09419,-7.36662 3.03046,-11.11167 0.80796,-3.23187 0.20242,-6.87062 1.01015,-10.10153 1.55749,-6.22997 4.87315,-12.59915 7.07107,-19.1929 0.50393,-1.51179 -0.38727,-3.50172 0,-5.05076 2.60777,-10.43112 1.44445,-22.5161 4.04061,-30.30458 1.63736,-4.91208 2.86998,-10.79072 5.05076,-15.15228 0.13719,-0.27439 -1.94612,-7.21945 -1.01015,-9.09138 1.13663,-2.27327 -0.004,-19.18879 1.01015,-20.20305 1.69195,-1.69195 2.72761,-4.44506 4.04061,-7.07107 0.60609,-1.21218 2.42436,-1.81827 3.03046,-3.03045 0.513,-1.02601 -1.36505,-6.41582 -2.02031,-7.07107 -0.47619,-0.47619 -1.41797,0.30117 -2.0203,0 -1.46173,-0.73086 -5.08888,-3.06857 -6.06092,-4.04061 -7.92511,-7.92511 -39.24498,-22.94323 -52.52793,-26.26397 -3.46708,-0.86677 -7.0377,-1.49854 -10.10153,-3.03046 -3.73307,-1.86653 -10.48204,0.8199 -14.14213,-1.01015 -7.05469,-3.52734 -16.71837,-3.30842 -24.24366,-7.07107"
       id="path11894"
       inkscape:connector-curvature="0" />
    <path
       style="opacity:1;fill:#d5fff6;fill-opacity:1;fill-rule:nonzero;stroke:none;stroke-width:2.44300008;stroke-linecap:round;stroke-linejoin:round;stroke-miterlimit:4;stroke-dasharray:none;stroke-opacity:1"
       d="m 430.32498,473.54479 c -7.51603,-9.70779 -16.43269,-9.92873 -26.26396,-14.14213 -19.69541,-8.44089 -23.38342,-3.03046 -43.43656,-3.03046 -21.2132,0 -42.42641,0 -63.63961,0 -14.107,0 -29.44736,-1.74865 -43.43656,0 -9.28414,1.16052 -18.13722,3.74549 -27.27412,5.05076 -10.08429,1.44062 -20.2954,5.85696 -30.30458,8.08122 -9.01016,2.00226 -20.42721,3.14254 -28.28427,7.07107 -1.33996,0.66998 -3.61746,-0.47776 -5.05076,0 -12.79861,4.2662 -47.07643,13.95008 -51.51778,27.27412 -1.01438,3.04313 -4.19081,6.62046 -3.03046,10.10153 2.12136,6.36408 10.55928,27.76342 18.18275,30.30457 4.71443,1.57148 10.17371,3.80612 15.15229,5.05076 11.27929,2.81983 29.8434,-2.84746 41.41625,1.01016 8.53985,2.84661 16.27931,8.12017 25.25381,11.11168 5.94514,1.98171 11.61656,3.28289 17.1726,6.06091 2.95183,1.47592 21.78132,1.2732 26.26396,2.02031 15.19349,2.53224 30.98315,4.85908 46.46702,7.07106 6.58473,0.94068 12.59018,4.22543 19.1929,5.05077 6.67116,0.83389 13.59175,1.92857 20.20305,3.03045 1.84729,0.30789 6.98612,2.78711 8.08122,3.03046 7.24688,1.61042 15.02939,1.88242 22.22336,4.04061 8.90154,2.67046 18.01839,6.5386 27.27412,8.08122 3.75723,0.62621 7.34979,0.25778 11.11167,1.01015 3.14049,0.6281 6.368,-1.01015 9.09138,-1.01015 0.75292,0 1.26738,1.01015 2.0203,1.01015 0.66062,0 12.73499,-0.9109 13.13198,-1.01015 6.13972,-1.53493 12.02531,-3.81927 18.18275,-5.05076 6.34701,-1.2694 15.30258,1.01015 22.22336,1.01015 6.40562,0 23.32865,1.65187 28.28427,0 4.94256,-1.64752 9.18414,-8.1276 13.13198,-10.10152 2.5204,-1.26021 9.66959,-2.1666 11.11168,-5.05077 3.71296,-7.42591 2.67346,-20.26389 0,-28.28427 -0.65836,-1.97506 -3.09467,-4.16902 -4.04061,-6.06091 -0.30117,-0.60234 0.30117,-1.41797 0,-2.02031 -2.04635,-4.09269 -4.56249,-9.36911 -7.07107,-13.13198 -13.1649,-19.74735 -27.77537,-23.56768 -45.45686,-35.35534 -4.21815,-2.8121 -9.66461,-4.08605 -14.14214,-7.07107 -2.35168,-1.56779 -5.72825,-1.85397 -8.08122,-3.03046 -1.50655,-0.75327 -2.49967,-2.25998 -4.04061,-3.03045 -2.15492,-1.07747 -4.04346,-0.003 -6.06092,-2.02031"
       id="path11892"
       inkscape:connector-curvature="0" />
    <path
       style="opacity:1;fill:#00aa88;fill-opacity:1;fill-rule:nonzero;stroke:none;stroke-width:2.44300008;stroke-linecap:round;stroke-linejoin:round;stroke-miterlimit:4;stroke-dasharray:none;stroke-opacity:1"
       d="m 446.50596,474.31915 c -6.35245,-3.80648 -12.30744,2.20191 -18.71314,1.69696 -1.99368,-0.15715 -4.32719,1.01837 -6.4115,0.85406 -11.73411,-0.92498 -15.39173,3.33594 -24.27058,8.96252 -3.96818,2.51466 -8.33597,4.21291 -12.31279,6.73304 -2.70004,1.71103 -3.45192,6.46611 -6.0788,8.13078 -2.51515,1.59387 -13.12689,17.06042 -13.37782,20.24375 -0.1354,1.71749 0.64257,3.34576 0.5102,5.02492 -0.34086,4.324 -3.22579,8.54695 -4.18202,12.81184 -0.88343,3.94021 0.79556,7.15363 0.49905,10.91508 -0.50136,6.36006 -7.63062,11.81567 -8.69675,18.34697 -1.39929,8.57229 -1.0408,17.78292 -2.99527,26.50006 -0.61148,2.72727 -2.52096,4.88221 -3.30565,7.44306 -2.51554,8.2095 -4.94528,16.69397 -7.84269,24.75847 -2.39462,6.66506 -8.01039,11.92579 -10.08332,18.69083 -0.81241,2.65134 0.14077,6.2306 -0.71002,9.00714 -1.96599,6.41603 -1.85784,13.58932 -3.84932,20.08855 -0.44602,1.45561 -1.62221,3.33307 -1.74158,4.84743 -0.52017,6.59886 -0.68427,14.73266 -2.1189,21.13127 -0.69951,3.1199 -3.64946,6.05627 -4.34837,9.17349 -1.18643,5.29159 -1.82084,9.58122 -2.97296,14.71977 -2.81825,12.56966 0.2527,23.92919 0.79829,35.8622 0.22681,4.96071 0.36946,19.99416 3.07238,24.25943 0.56299,0.8884 4.58114,6.70529 5.35763,6.7665 11.09319,0.87446 21.49038,5.77245 32.55654,6.64477 2.56114,0.20189 22.044,-6.98378 25.13579,-8.44115 3.4394,-1.62122 7.22499,0.2349 10.57122,-1.88563 2.24915,-1.4253 4.3543,-11.85137 8.86309,-14.70861 2.32858,-1.47564 7.90855,-8.34814 8.16424,-11.59163 0.24547,-3.11393 0.47971,-6.51987 1.23137,-9.87235 0.80204,-3.57715 5.97134,-6.76752 6.25631,-10.38255 0.56266,-7.13786 10.90901,-17.66824 11.30354,-22.67304 0.27345,-3.46906 7.56609,-25.87381 7.49883,-26.14505 -0.65207,-2.62943 0.41855,-5.30957 0.71002,-9.00713 0.27132,-3.44201 -1.78931,-6.04446 -1.54177,-9.18465 0.48819,-6.19302 18.64577,-18.0882 19.27912,-26.12273 0.17206,-2.18273 1.22799,-4.08091 1.39771,-6.234 0.81692,-10.36316 -1.61128,-15.64772 1.6087,-26.1562 2.15984,-7.04865 10.38334,-12.72844 11.99125,-19.89989 0.4297,-1.91647 1.6086,-6.90245 3.82701,-8.30828 0.77569,-0.49155 1.80387,0.11114 1.90793,-1.20907 0.0823,-1.04379 2.4272,-5.05031 2.26294,-5.71263 -0.17192,-0.69328 -1.03714,-1.21465 -1.20906,-1.90793 -0.15895,-0.64096 1.51049,-1.91585 1.56408,-2.59563 0.55465,-7.0363 -0.0365,-14.09729 2.11889,-21.13128 1.56031,-5.09207 4.82611,-9.48534 5.22475,-14.54227 0.87328,-11.07839 -0.98729,-24.75406 -3.57144,-35.17449 -1.02611,-4.13777 -10.85569,-17.97446 -13.64359,-22.37381 -1.41006,-2.2251 -7.21101,-4.34519 -9.51734,-5.73494"
       id="path11912"
       inkscape:connector-curvature="0" />
    <path
       style="opacity:1;fill:#d5fff6;fill-opacity:1;fill-rule:nonzero;stroke:none;stroke-width:2.44300008;stroke-linecap:round;stroke-linejoin:round;stroke-miterlimit:4;stroke-dasharray:none;stroke-opacity:1"
       d="m 606.09153,678.60576 c 2.51995,1.62762 3.84611,2.93321 6.06091,4.04061 2.97965,1.48982 9.29262,-2.08739 12.12183,-3.03046 2.00842,-0.66947 5.1938,0.93864 7.07107,0 3.48408,-1.74204 7.39835,0.22762 11.11168,-1.01015 5.15958,-1.71986 10.58247,-1.7557 15.15229,-4.04061 3.23249,-1.61625 4.84873,-6.46498 8.08122,-8.08122 4.10506,-2.05254 6.89898,-6.98503 11.11168,-9.09138 2.6327,-1.31635 4.79856,-3.78841 7.07106,-6.06091 1.33847,-1.33847 7.80686,-7.53249 8.08122,-8.08122 1.67111,-3.3422 3.35529,-6.71058 5.05077,-10.10153 0.84927,-1.69855 0.17375,-4.38811 1.01015,-6.06091 1.11375,-2.2275 2.94734,-3.87437 4.04061,-6.06092 0.30117,-0.60234 -0.30117,-1.41796 0,-2.0203 0.60609,-1.21219 2.42437,-1.81828 3.03046,-3.03046 0.58505,-1.17011 0.44339,-2.90709 1.01015,-4.04061 0.77047,-1.54094 2.27718,-2.53406 3.03046,-4.04061 0.83693,-1.67387 -0.3447,-24.58836 -1.01015,-25.25381 -0.85193,-0.85193 -3.18869,-3.18869 -4.04061,-4.04061 -2.99212,-2.99212 -2.62231,-8.38222 -8.08123,-11.11168 -3.75613,-1.87807 -45.53478,-1.24321 -50.50762,0 -6.4212,1.6053 -13.76067,-0.60045 -20.20305,1.01015 -1.8537,0.46342 -4.24923,-0.6039 -6.06092,0 -3.30824,1.10275 -8.09073,1.51999 -11.11168,3.03046 -3.30564,1.65282 -6.11399,5.05076 -11.11167,5.05076"
       id="path11984"
       inkscape:connector-curvature="0" />
    <path
       style="opacity:1;fill:#00aa88;fill-opacity:1;fill-rule:nonzero;stroke:none;stroke-width:2.44300008;stroke-linecap:round;stroke-linejoin:round;stroke-miterlimit:4;stroke-dasharray:none;stroke-opacity:1"
       d="m 446.66104,474.04113 c -6.9367,0.10039 -14.60955,4.672 -21.15234,4.15624 -3.32916,-0.26242 -18.74268,0.64612 -21.48633,2.38477 -5.61473,3.5581 -12.38227,7.48764 -16.99219,8.63086 -16.80562,4.1676 -15.90818,15.46468 -19.11328,29.75977 -0.46921,2.0927 0.18981,4.74349 -0.5332,6.75586 -5.11705,14.24257 -2.91673,31.26615 -4.07031,45.90039 -0.41759,5.2974 3.39366,11.8015 5.51172,16.29492 2.51364,5.33265 2.12688,13.07487 7.76562,16.47265 l 43.25977,26.06836 c 5.31607,-6.95555 14.87665,-4.07938 21.49804,-8.27539 3.05709,-1.9373 5.55578,-4.59048 8.67383,-6.5664 1.75692,-1.11338 2.5622,-4.29727 4.51563,-5.53516 6.84635,-4.33857 16.51637,-5.30829 24.26953,-8.96289 2.90178,-1.3678 6.00553,-2.1862 8.49804,-4.31445 0.38301,-0.32704 0.88685,-1.03274 1.3418,-1.58399 1.73767,0.92776 4.30461,1.33853 6.68164,1.76172 1.47636,0.90513 3.05467,1.73111 4.69727,2.82617 3.03485,2.02323 6.11472,3.6859 9.15429,5.3086 4.98935,3.33483 10.01928,6.67147 15.12696,9.94531 1.78687,1.70683 3.47201,3.64942 5.01172,5.95898 4.80892,7.21338 6.1384,21.60073 13.13281,26.26368 9.04792,6.03192 19.12673,9.56434 28.2832,14.14257 5.62577,2.81289 7.39768,9.25353 13.13281,12.1211 1.17011,0.58506 2.9075,0.44299 4.04102,1.00976 4.2352,2.1176 11.15116,1.01172 16.16211,1.01172 0.94463,0 3.0416,2.00918 4.04101,1.00977 0.25202,-0.25201 2.83407,-7.69156 3.0293,-8.08203 0.99481,-1.98961 3.91688,-2.90711 5.05078,-4.04102 1.00945,-1.00945 0.44276,-3.336 -0.35547,-5.41992 0.0954,0.0277 0.18257,0.0455 0.24024,0.0312 0.32192,-0.0798 -2.03614,-4.05542 -1.19727,-7.79688 0.74069,-3.30353 2.75789,-6.46383 3.48242,-9.69531 1.81582,-8.09875 -1.89404,-18.54367 5.5918,-24.93555 4.89981,-4.18378 10.92429,-7.9379 17.17188,-10.88281 2.06911,-0.97532 4.96609,-1.72067 6.58789,-3.10547 5.33881,-4.55861 11.07159,-9.03251 16.48437,-13.65429 0.97172,-0.82971 1.11423,-2.63123 2.08594,-3.46094 2.10486,-1.79726 4.33922,-2.86566 6.24414,-4.49219 0.97171,-0.82971 1.11422,-2.63123 2.08594,-3.46094 3.11209,-2.65731 19.78809,-9.35544 20.28711,-10.18359 0.17379,-0.28839 -0.57683,-0.34769 -0.86524,-0.52149 -3.22527,-1.94348 -9.24365,-5.41632 -11.58984,-8.16406 -3.6345,-4.25653 -40.4963,-28.72064 -45.67969,-29.88281 -6.85037,-1.53592 -38.69381,-18.75267 -42.57226,-23.29492 -2.08766,-2.44496 -8.77547,-8.39534 -12.45704,-8.68555 -5.45293,-0.42984 -12.78375,-4.17582 -19.04687,-5.58008 -2.97418,-0.66684 -4.44208,-3.07004 -7.44336,-3.30664 -1.79308,-0.14134 -3.41927,-2.73006 -5.18945,-3.12695 -11.18962,-2.50883 -22.40409,-4.03155 -33.59961,-4.91406 -0.2821,-0.0222 -0.58033,-0.0348 -0.89063,-0.0371 -4.65452,-0.0346 -12.28277,2.04019 -16.95703,2.2539 -2.49624,0.11414 -11.47012,-1.4696 -14.26953,-0.92382 -0.49506,-0.10806 -1.0039,-0.20845 -1.49414,-0.31836 -3.88201,-0.87038 -7.35344,-0.0113 -11.25781,-0.88672 -6.07332,-1.36171 -12.78845,-3.72712 -18.70313,-4.19336 -1.51014,-0.11904 -3.42819,-1.6303 -4.84765,-1.74219 -0.45536,-0.0359 -0.91451,-0.0477 -1.37696,-0.041 z m 42.82227,120.44335 c 0.11494,-0.0147 0.20194,0.0582 0.25,0.25196 0.0616,0.2484 -0.44723,0.2599 -0.88086,0.2539 0.24493,-0.27509 0.4675,-0.485 0.63086,-0.50586 z"
       id="path11914"
       inkscape:connector-curvature="0" />
    <path
       style="opacity:1;fill:#00d4aa;fill-opacity:1;fill-rule:nonzero;stroke:none;stroke-width:2.44300008;stroke-linecap:round;stroke-linejoin:round;stroke-miterlimit:4;stroke-dasharray:none;stroke-opacity:1"
       d="m 335.81208,586.52202 c -0.32623,2.31446 -0.72359,4.61637 -1.28379,6.8887 -0.80226,3.2541 -3.30617,5.82566 -4.33566,8.88122 -3.30031,9.79532 -6.48946,19.92031 -10.29079,29.54265 -3.14167,7.95254 -10.50771,14.22785 -13.22733,22.2997 -1.06587,3.1635 0.18347,7.43499 -0.93273,10.74787 -2.57934,7.65542 -2.43783,16.2136 -5.0506,23.9683 -0.58516,1.73679 -2.12909,3.9772 -2.2857,5.7841 -0.68244,7.87355 -0.8955,17.57809 -2.7777,25.21272 -0.91773,3.72259 -4.78961,7.22659 -5.70653,10.94597 -1.55657,6.31377 -2.38852,11.43314 -3.90006,17.56431 -3.69747,14.99777 0.33224,28.55059 1.04804,42.78872 0.29757,5.91897 0.48456,23.85685 4.03072,28.94605 0.73862,1.06002 6.01006,7.99953 7.02879,8.07257 14.55397,1.04337 28.19491,6.88955 42.71343,7.93039 3.36014,0.24087 28.91976,-8.33315 32.9761,-10.07205 4.51239,-1.93439 9.48037,0.27898 13.87053,-2.25117 2.95081,-1.70064 5.71296,-14.14118 11.62838,-17.55035 3.05502,-1.76069 10.37557,-9.95863 10.71101,-13.82868 0.32204,-3.71545 0.6282,-7.78016 1.61435,-11.78025 1.05224,-4.26814 7.8362,-8.07511 8.21007,-12.38845 0.73819,-8.51669 14.31129,-21.0822 14.82889,-27.05379 0.35876,-4.13918 9.92546,-30.87125 9.83721,-31.19489 -0.8555,-3.13736 0.55033,-6.33605 0.93275,-10.74787 0.35595,-4.10691 -2.34655,-7.21081 -2.02179,-10.9576 0.64049,-7.38935 24.46041,-21.58269 25.29136,-31.16928 0.22574,-2.60436 1.61204,-4.86967 1.83471,-7.43868 1.07178,-12.36501 -2.11307,-18.67047 2.11145,-31.2089 2.83056,-8.40104 13.59697,-15.17077 15.72317,-23.71427 -8.36081,-0.53336 -18.07129,-2.36567 -25.24779,-1.06035 -8.07839,1.46938 -15.79867,4.19503 -23.85383,6.02646 -0.52082,0.11836 -16.36314,1.20483 -17.22985,1.20483 -0.98783,0 -1.66176,-1.20483 -2.64959,-1.20483 -3.57299,0 -7.80796,1.95427 -11.92817,1.20483 -4.93548,-0.89771 -9.64837,-0.45766 -14.57777,-1.20483 -12.14325,-1.84061 -24.10599,-6.45695 -35.78455,-9.64326 -6.88334,-1.87801 -14.17412,-2.56346 -21.30673,-3.53989 z"
       id="path11912-7"
       inkscape:connector-curvature="0"
       sodipodi:nodetypes="cssssssssssssssssssssscssssscsssssssc" />
    <path
       style="opacity:1;fill:#d5fff6;fill-opacity:1;fill-rule:nonzero;stroke:none;stroke-width:2.44300008;stroke-linecap:round;stroke-linejoin:round;stroke-miterlimit:4;stroke-dasharray:none;stroke-opacity:1"
       d="m 289.35365,819.23788 c -4.49964,0.42793 -4.56466,-6.62555 -6.08728,-9.61405 -0.44161,-0.8668 0.35061,-6.667 0.0322,-8.10506 -0.54843,-2.47672 1.28222,-6.58501 0.73378,-9.06171 -1.25715,-5.67722 -1.69159,-11.76416 -2.95465,-17.46807 -0.61535,-2.77885 2.68143,-26.94406 3.52304,-28.09156 0.47234,-0.64403 0.82663,-0.4676 1.40324,-1.91329 0.32603,-0.8174 -0.11893,-3.42062 0.32612,-4.02743 1.05025,-1.43199 1.52691,-5.4331 2.51252,-7.90422 1.56024,-3.91178 3.12554,-7.83627 4.69894,-11.78101 1.10089,-2.76014 2.82332,-4.03449 2.80649,-3.82659 -0.0272,0.33562 -0.74704,-0.29936 -0.6201,-0.0502 0.28385,0.55713 0.87481,0.55016 1.15866,1.10729 1.0595,2.07952 0.65101,22.79266 0.27907,27.38599 -0.48918,6.04113 -0.97836,12.08228 -1.46754,18.12342 -0.34171,4.21991 -0.84602,8.14384 -0.35828,12.13249 0.0125,0.10146 -1.38876,9.44259 -1.51692,11.02522 -0.40209,4.96568 -1.20809,15.0655 -2.78926,19.02986 -0.83922,2.10405 1.05044,6.19329 -1.67998,13.03893 z"
       id="path11986"
       inkscape:connector-curvature="0" />
    <path
       style="opacity:1;fill:#ff5555;fill-opacity:1;fill-rule:nonzero;stroke:none;stroke-width:2.44300008;stroke-linecap:round;stroke-linejoin:round;stroke-miterlimit:4;stroke-dasharray:none;stroke-opacity:1"
       d="m 693.9748,578.60066 c -9.1121,9.46218 -19.62855,14.35996 -31.31473,20.20305 -3.16105,1.58052 -4.03492,5.04792 -8.08122,7.07107 -2.39593,1.19796 -7.2387,2.18793 -9.09137,4.04061 -1.66271,1.66271 -9.11628,11.12413 -11.11168,12.12183 -4.77438,2.38719 -10.63279,5.10313 -13.13198,10.10152 -2.87268,5.74536 3.03045,13.69748 3.03045,18.18275 0,3.27129 -3.89289,22.22336 -6.06091,22.22336 -0.33672,0 -0.2381,-1.24825 0,-1.01016 2.81944,2.81944 3.68232,3.03046 8.08122,3.03046 4.16276,0 13.53016,1.82122 17.17259,0 2.39186,-1.19593 6.17023,-2.12962 8.08122,-4.04061 1.21918,-1.21918 3.82146,-3.93103 6.06092,-5.05076 5.39533,-2.69767 12.67198,-4.59077 17.17259,-9.09138 3.0368,-3.0368 3.98518,-9.03594 7.07107,-12.12183 1.27312,-1.27312 5.41971,-3.3994 7.07107,-5.05076 0.88883,-0.88883 2.36828,-3.37844 3.03045,-4.04061 1.48764,-1.48764 2.55807,-10.63928 3.03046,-11.11168 3.17092,-3.17091 3.82578,-9.67186 6.06092,-14.14213 1.2738,-2.54761 2.91011,-2.78978 4.04061,-5.05077 1.3648,-2.7296 -1.01016,-6.85931 -1.01016,-9.09137 0,-4.29187 1.13898,-14.07772 -3.03045,-16.16244 -2.12959,-1.06479 -4.76121,-0.43269 -7.07107,-1.01015 z"
       id="path12013"
       inkscape:connector-curvature="0" />
    <path
       style="opacity:1;fill:#d5fff6;fill-opacity:1;fill-rule:nonzero;stroke:none;stroke-width:2.44300008;stroke-linecap:round;stroke-linejoin:round;stroke-miterlimit:4;stroke-dasharray:none;stroke-opacity:1"
       d="m 673.77175,620.01691 c -5.59693,1.77124 -11.30071,1.60974 -16.16245,4.04061 -3.32181,1.66091 -6.26828,4.24798 -9.09137,7.07107 -1.99637,1.99637 -5.81953,4.568 -7.07107,7.07107 -1.99344,3.98688 16.40617,6.82734 18.18275,5.05076 0.50508,-0.50508 0.50508,-1.51523 1.01015,-2.02031 1.55832,-1.55831 4.4728,-1.22624 6.06092,-2.0203 1.57783,-0.78892 1.13475,-3.09276 3.03045,-4.04061 6.63076,-3.31538 13.2742,-10.5355 4.04062,-15.15229 z"
       id="path12015"
       inkscape:connector-curvature="0" />
    <path
       style="opacity:1;fill:url(#linearGradient12105);fill-opacity:1;fill-rule:nonzero;stroke:none;stroke-width:2.44300008;stroke-linecap:round;stroke-linejoin:round;stroke-miterlimit:4;stroke-dasharray:none;stroke-opacity:1"
       d="m 620.23366,670.52454 c 0,36.02877 0,72.05755 0,108.08632 0,31.31473 0,62.62946 0,93.94419 0,18.85618 0,37.71236 0,56.56854 0,25.57464 -1.01015,48.76352 -1.01015,74.75131 0,4.3773 0,8.7546 0,13.132 0,1.9258 2.1493,3.9116 2.02031,4.0406 -0.33672,0.3367 -1.48635,-1.0102 -1.01016,-1.0102 2.66491,0 8.14131,2.4954 11.11168,1.0102 1.76048,-0.8803 1.01015,-4.4131 1.01015,-6.0609 0,-4.8049 -0.30679,-17.5692 3.03046,-24.2437 1.69168,-3.38336 -0.74031,-8.6209 1.01015,-12.12183 0.48428,-0.96856 -1.01015,-11.55944 -1.01015,-14.14214 0,-6.40382 1.67069,-35.04442 0,-38.3858 -1.4867,-2.97341 -2.62071,-10.70193 -4.04061,-12.12183 -0.41805,-0.41804 0.17309,-37.72181 1.01015,-39.39595 2.03617,-4.07233 -3.66306,-23.9886 0,-31.31472 0.59225,-1.1845 -0.59946,-1.19894 -1.01015,-2.02031 -0.85597,-1.71194 0,-6.12486 0,-8.08122 0,-1.88519 0.21564,-1.44144 1.01015,-3.03046 0.85748,-1.71494 0.44516,-21.53852 2.02031,-26.26396 2.92949,-8.78849 -3.16426,-31.04713 1.01015,-39.39595 1.68297,-3.36595 0,-21.42726 0,-26.26397 0,-12.91025 -2.76091,-47.00611 2.02031,-56.56854 0.53874,-1.0775 -0.53875,-2.96312 0,-4.04061 1.48426,-2.96854 2.80483,-8.86576 5.05076,-11.11168 1.21759,-1.21759 6.03428,-3.98735 7.07107,-6.06092 0.78217,-1.56435 -0.56539,-1.45492 1.01015,-3.03045"
       id="path12017"
       inkscape:connector-curvature="0" />
    <path
       style="opacity:1;fill:#ff5555;fill-opacity:1;fill-rule:nonzero;stroke:none;stroke-width:2.44300008;stroke-linecap:round;stroke-linejoin:round;stroke-miterlimit:4;stroke-dasharray:none;stroke-opacity:1"
       d="m 735.97012,1013.0288 c -0.70867,-1.9706 -2.1489,0.894 -3.00575,0 -3.57074,-3.7251 -17.04043,1.5597 -19.53735,-1.0452 -0.61473,-0.6413 -3.32048,-2.479 -4.00766,-1.0453 -0.69334,1.4467 2.00383,2.8303 2.00383,4.181 0,0.6969 -0.66794,0 -1.00191,0 -1.33589,0 -2.67178,0 -4.00766,0 -1.81318,0 -5.9614,1.6202 -7.51437,0 -0.34249,-0.3573 -4.79792,-2.0905 -5.00958,-2.0905 -0.23615,0 -0.28973,0.8249 -0.50096,1.0453 -0.35773,0.3732 -7.40503,-2.4991 -8.01532,-3.1358 -0.95729,-0.9986 -4.88864,-0.2523 -5.51054,1.0453 -1.33788,2.7915 4.34363,9.7515 3.00575,12.543 -0.24996,0.5215 -2.11254,0 -2.50479,0 -3.27541,0 -8.72506,1.8727 -11.52202,-1.0452 -1.46608,-1.5295 -3.94046,1.092 -5.51054,0 -3.41984,-2.3785 -7.3663,-3.7296 -11.02107,-6.2716 -1.91556,-1.3322 -4.27542,-0.2792 -6.0115,-2.0905 -0.0873,-0.091 -9.33285,2.2839 -10.52011,1.0453 -2.76492,-2.8845 -1.93497,-9.4073 -0.50095,-9.4073 0.53047,0 -1.42432,3.0539 -1.50288,3.1358 -1.86394,1.9445 -3.92037,2.0905 -6.01149,2.0905 -3.38974,0 -3.95497,-2.2464 -6.51246,-3.1358 -2.17711,-0.7571 -8.86809,0.6783 -10.52011,-1.0452 -2.37239,-2.475 -5.8617,-2.3348 -8.51628,-4.1809 -2.83222,-1.9699 -5.16155,-4.78311 -8.01532,-6.27167 -4.54134,-2.3689 -9.90169,1.60866 -14.52778,0 -2.95126,-1.0263 -6.10922,-1.6189 -9.01723,-3.13573 -2.77508,-1.44761 -6.31174,1.88173 -9.01725,0 -2.27718,-1.58379 -4.68157,-2.96469 -7.0134,-4.18104 -2.8291,-1.47572 -6.15441,1.19466 -9.01724,0 -2.392,-0.99818 -5.50787,-2.0905 -8.01533,-2.0905 -1.83712,0 -4.18341,-1.13693 -6.01149,-2.09051 -2.90101,-1.51323 -6.69271,0.91989 -9.5182,-1.04525 -5.0173,-3.48954 -13.23204,-3.13575 -19.03639,-3.13575 -0.86823,0 -5.87866,-1.32242 -6.51245,0 -0.74418,1.55274 0.75394,5.23674 1.00192,6.27151 0.43985,1.83554 -0.221,5.81045 0.50095,7.31677 0.77337,1.6136 2.00383,3.60376 2.00383,6.27157 0,15.984 -14.36055,4.5291 -18.03448,8.362 -0.87764,0.9156 -8.01532,4.4569 -8.01532,5.2262 0,3.733 5.16359,5.5477 6.01149,7.3168 1.31444,2.7426 5.02909,7.2964 2.00383,10.4525 -1.23807,1.2917 0.17292,1.0453 -1.00191,1.0453 -0.93491,0 -0.71484,0.2231 -1.50288,1.0452 -2.13742,2.2299 -5.8779,-2.2299 -8.01532,0 -1.93107,2.0147 -4.06012,4.2357 -6.01149,6.2715 -1.17259,1.2234 -1.90657,0.8424 -3.00575,3.1358 -0.55942,1.1672 -1.65296,2.7168 -2.00383,4.181 -0.20583,0.8589 -0.2799,7.778 0,8.362 0.4192,0.8747 7.22758,1.8851 8.01532,2.0905 3.15599,0.8231 13.78841,-0.5142 16.03065,1.0453 1.30385,0.9068 1.12352,1.0452 2.50479,1.0452 4.5511,0 9.69426,-1.2147 14.02682,1.0453 2.99469,1.5621 5.99415,3.6493 9.01724,5.2263 0.94297,0.4918 2.06276,-0.4919 3.00574,0 7.06371,3.6845 15.11692,2.0905 22.5431,2.0905 3.34969,0 16.30657,-1.5503 18.53544,0 4.75351,3.306 22.7675,1.0452 29.05555,1.0452 4.1263,0 16.02745,1.8309 19.53735,0 1.78341,-0.9303 3.14942,-1.0452 5.00958,-1.0452 3.33908,0 10.66057,1.9928 13.52585,0 4.06203,-2.8252 8.804,-4.0698 13.02491,-6.2716 2.61299,-1.363 6.66698,-0.6032 9.5182,-2.0905 1.3912,-0.7257 2.89924,0.2744 4.00766,1.0453 1.34507,0.9355 9.17561,0.561 10.52011,0 4.44747,-1.8559 9.3826,-1.0453 14.02682,-1.0453 7.34738,0 14.69476,0 22.04214,0 20.87324,0 41.74648,0 62.61972,0 7.12041,0 13.80771,1.0453 21.04022,1.0453 1.62583,0 3.9293,0.8248 5.51054,0 2.65624,-1.3855 5.30736,-3.1358 8.01532,-3.1358 20.72485,0 41.08237,1.0453 61.6178,1.0453 2.98963,0 7.90225,1.5171 9.5182,-5.2263 0.47789,-1.9942 -3.31809,-6.5973 -4.00766,-7.3167 -2.07679,-2.1667 -4.44189,-3.0662 -6.51245,-5.2263 -1.50101,-1.566 -4.00953,0.5207 -5.51054,-1.0453 -3.32773,-3.4716 -8.43938,-4.6233 -12.02298,-8.362 -1.67749,-1.75 1.32828,-0.6809 1.50287,-1.0452 1.35098,-2.8188 6.28723,-8.4674 7.01341,-11.4978 1.38785,-5.7915 -4.86642,-11.871 -6.51245,-13.5883 -2.10246,-2.1933 -9.10167,-0.9571 -11.02107,1.0453 -2.38572,2.4889 -11.34713,-1.6205 -13.52586,-3.1357 -0.8842,-0.615 -1.35701,0.3704 -2.00383,1.0453 -0.44537,0.4646 -12.57673,0.4675 -13.0249,0 -5.27974,-5.5083 -17.38538,-3.1358 -24.04597,-3.1358 -1.82146,0 -5.92059,1.6627 -7.51437,0 -1.51644,-1.5822 -0.88084,-3.92861 -1.50287,-5.22637 -0.59714,-1.246 -3.25506,0.78506 -4.00767,0 -3.5034,-3.65497 -11.82715,-1.0452 -16.5316,-1.0452 -0.72548,0 -2.37081,0.6623 -3.00575,0 -1.07896,-1.1256 -1.66103,-1.0453 -3.00574,-1.0453 -1.28678,0 -5.37872,0.9077 -6.51246,2.0905 -1.20229,1.25426 -3.30631,-1.2543 -4.50862,0 -2.45249,2.55856 -7.4992,-0.063 -9.01724,6.27167 -0.75535,3.152 2.2726,3.4161 3.00575,4.1809 2.47896,2.5862 4.9868,-1.5916 6.51245,0 2.28067,2.3793 6.25608,3.786 9.01724,5.2262 z"
       id="path12019"
       inkscape:connector-curvature="0" />
    <path
       style="opacity:1;fill:#ffaaaa;fill-opacity:1;fill-rule:nonzero;stroke:none;stroke-width:2.44300008;stroke-linecap:round;stroke-linejoin:round;stroke-miterlimit:4;stroke-dasharray:none;stroke-opacity:1"
       d="m 497.59208,980.17788 c -1.01937,-0.0387 -1.87171,0.0842 -2.10938,0.58007 -0.74418,1.5527 0.75398,5.23669 1.00196,6.27149 0.43985,1.8355 -0.22195,5.81 0.5,7.3164 0.77337,1.6136 2.0039,3.60369 2.0039,6.27146 0,15.984 -14.35927,4.5304 -18.0332,8.3633 -0.87764,0.9156 -8.01563,4.4553 -8.01562,5.2246 0,3.733 5.16381,5.5493 6.01171,7.3184 1.31444,2.7426 5.02917,7.295 2.00391,10.4511 -1.23807,1.2917 0.17288,1.0469 -1.00195,1.0469 -0.93491,0 -0.71587,0.2228 -1.50391,1.0449 -2.13742,2.2299 -5.8782,-2.2299 -8.01562,0 -1.93107,2.0147 -4.06035,4.2357 -6.01172,6.2715 -1.17259,1.2234 -1.90668,0.8414 -3.00586,3.1348 -0.55942,1.1672 -1.65304,2.7174 -2.00391,4.1816 -0.20583,0.8589 -0.2799,7.7774 0,8.3614 0.4192,0.8747 7.22789,1.8864 8.01563,2.0918 3.15599,0.8231 13.78901,-0.5146 16.03125,1.0449 1.30385,0.9068 1.12263,1.0449 2.5039,1.0449 4.43809,0 9.43779,-1.1458 13.70117,0.8926 8.6561,-1.2733 17.32435,-2.5584 26.01758,-3.9258 7.98064,-1.2553 31.40167,-1.8771 39.35742,0 1.09456,0.2582 1.8991,1.4277 3.02735,1.4277 1.12824,0 1.95699,-1.091 3.02734,-1.4277 2.98745,-0.9398 5.12929,1.4277 7.56836,1.4277 0.71357,0 0.8001,-1.4277 1.51367,-1.4277 5.68153,0 5.12277,1.2912 10.59571,0 9.48052,-2.2369 20.60783,1.5203 30.27343,0 12.99692,-2.0444 25.26922,-5.6054 37.84375,-8.5723 3.05661,-0.7211 6.13989,-0.039 9.08203,-1.4277 12.73458,-6.0092 25.20768,-12.6105 37.84178,-18.5723 3.8958,-1.8383 6.7465,-5.3261 10.5957,-7.1425 1.6147,-0.7619 4.4421,0.7619 6.0567,0 11.2763,-5.3211 31.4263,-4.8299 42.3828,-10 5.74,-2.7086 15.4338,1.2872 21.1914,-1.4297 3.2646,-1.5405 6.6351,-3.2978 10.0508,-5.2071 -0.007,0 -0.0289,-0.01 -0.0332,-0.014 -5.2798,-5.50833 -17.3863,-3.1368 -24.0469,-3.1368 -1.8215,0 -5.9199,1.6627 -7.5137,0 -1.5164,-1.5822 -0.8799,-3.92686 -1.5019,-5.22456 -0.5972,-1.246 -3.2552,0.785 -4.0078,0 -3.5035,-3.655 -11.8269,-1.04687 -16.5313,-1.04687 -0.7255,0 -2.3709,0.6623 -3.0059,0 -1.0789,-1.1256 -1.6611,-1.04492 -3.0058,-1.04493 -1.2868,0 -5.3799,0.909 -6.5137,2.0918 -1.2023,1.2542 -3.3055,-1.2543 -4.5078,0 -2.4525,2.5585 -7.4996,-0.0631 -9.0176,6.27146 -0.7554,3.152 2.2728,3.4149 3.0059,4.1797 2.479,2.5862 4.986,-1.5916 6.5117,0 1.9864,2.0723 5.2198,3.4026 7.8555,4.6641 -0.6391,0.3272 -1.3408,1.0872 -1.8438,0.5625 -3.5708,-3.7251 -17.0402,1.5599 -19.5371,-1.045 -0.6147,-0.6413 -3.3207,-2.4786 -4.0078,-1.0449 -0.6934,1.4467 2.0039,2.829 2.0039,4.1797 0,0.6969 -0.6681,0 -1.002,0 l -4.0078,0 c -1.8132,0 -5.9606,1.6202 -7.5136,0 -0.3424,-0.3573 -4.7982,-2.0898 -5.0098,-2.0898 -0.2362,0 -0.2908,0.8245 -0.502,1.0449 -0.3577,0.3732 -7.4033,-2.4981 -8.0136,-3.1348 -0.9573,-0.9986 -4.8898,-0.2527 -5.5117,1.0449 -1.3378,2.7915 4.3437,9.7515 3.0058,12.543 -0.25,0.5215 -2.1116,0 -2.5039,0 -3.27539,0 -8.72647,1.873 -11.52343,-1.0449 -1.46608,-1.5295 -3.93969,1.092 -5.50977,0 -3.41984,-2.3785 -7.36671,-3.7295 -11.02148,-6.2715 -1.91556,-1.3322 -4.27564,-0.2805 -6.01172,-2.0918 -0.0873,-0.091 -9.33227,2.2855 -10.51953,1.0469 -1.59845,-1.6676 -1.97468,-4.5278 -1.74805,-6.6641 -0.11696,0.1831 -0.2412,0.3773 -0.25586,0.3926 -1.86394,1.9445 -3.9206,2.0898 -6.01172,2.0898 -3.38974,0 -3.95423,-2.2473 -6.51172,-3.1367 -2.1771,-0.7571 -8.86751,0.6786 -10.51953,-1.0449 -2.37239,-2.475 -5.86299,-2.3336 -8.51757,-4.1797 -2.83222,-1.9699 -5.16186,-4.78296 -8.01563,-6.27146 -4.54134,-2.3689 -9.90125,1.6086 -14.52734,0 -2.95126,-1.0263 -6.10957,-1.61982 -9.01758,-3.13672 -2.77508,-1.4476 -6.31012,1.8818 -9.01563,0 -2.27718,-1.5838 -4.68184,-2.96534 -7.01367,-4.18164 -2.8291,-1.4757 -6.15475,1.1946 -9.01758,0 -2.392,-0.9982 -5.50816,-2.08984 -8.01562,-2.08984 -1.83712,0 -4.18364,-1.13625 -6.01172,-2.08984 -2.90101,-1.51331 -6.69209,0.92027 -9.51758,-1.04493 -5.0173,-3.4895 -13.23276,-3.13672 -19.03711,-3.13672 -0.54264,0 -2.7034,-0.5155 -4.40234,-0.58007 z m 135.4082,28.41012 c 0.50991,-0.7981 1.67954,-2.7441 1.24805,-2.7441 -0.60499,0 -1.08266,1.1852 -1.24805,2.7441 z"
       id="path12060-4"
       inkscape:connector-curvature="0" />
    <path
       style="opacity:1;fill:#d7f4ee;fill-opacity:0.2801303;fill-rule:nonzero;stroke:none;stroke-width:2.44300008;stroke-linecap:round;stroke-linejoin:round;stroke-miterlimit:4;stroke-dasharray:none;stroke-opacity:1"
       d="m 220,820.93363 c -4.0453,0.33155 -11.44273,-6.42149 -15.71429,-4.28571 -1.87605,0.93803 -2.10157,4.20314 -2.85714,5.71428 -0.65853,1.31707 -2.40695,2.32895 -1.42857,4.28572 1.73548,3.47095 14.24919,7.8754 18.57143,5.71428 1.59739,-0.79869 6.45112,-6.16041 5.71428,-7.14285 -1.21218,-1.61625 -5.71428,-2.85715 -4.28571,-4.28572 1.50585,-1.50585 3.64828,2.34064 5.71429,2.85714 2.066,0.5165 -3.64829,-2.34064 -5.71429,-2.85714 z"
       id="path12111"
       inkscape:connector-curvature="0" />
    <path
       style="opacity:1;fill:#c6afe9;fill-opacity:1;fill-rule:nonzero;stroke:none;stroke-width:2.44300008;stroke-linecap:round;stroke-linejoin:round;stroke-miterlimit:4;stroke-dasharray:none;stroke-opacity:1"
       d="m 777.14286,176.84101 c 1.37683,38.64312 -2.63699,78.33108 4.28571,115.71335 1.24644,6.73074 0.61218,19.56125 -1.42857,25.07123 -2.23682,6.03936 0,34.02488 0,42.42823 0,6.53548 -2.7661,35.73975 1.42857,38.57111 6.96205,4.69936 24.84996,-3.6032 32.85714,0 16.30029,7.33508 36.5377,3.85711 54.28572,3.85711 11.12414,0 51.47095,-2.86423 58.57143,1.92856 4.16445,2.81099 9.28417,1.92855 14.28571,1.92855 0.47619,0 1.42857,-0.64285 1.42857,0 0,0.64287 -1.00265,0.2875 -1.42857,0 -2.05974,-1.3903 -2.48851,-16.42375 -1.42857,-19.28555 4.08861,-11.03915 1.42857,-41.98256 1.42857,-55.92812 0,-12.31035 -4.22047,-65.74705 -1.42857,-73.28512 2.41182,-6.51186 2.85714,-17.5104 2.85714,-25.07122 0,-8.74428 3.68311,-43.24176 0,-48.21391 -1.93265,-2.60905 -12.70018,0.10604 -15.71428,-1.92855 -9.01874,-6.0876 -19.79469,-5.64709 -28.57143,-11.57134 -2.18567,-1.4753 -4.19994,0.90638 -5.71429,1.92856 -6.47619,4.3714 -17.80952,-4.37138 -24.28571,0 -4.98132,3.36237 -21.22018,4.59375 -27.14286,1.92855 -6.43309,-2.89486 -18.27567,-4.05674 -24.28571,0 -4.43206,2.99162 -16.25661,0 -21.42857,0 -2.42751,0 -12.37367,-2.18963 -12.85715,-1.92855 -1.97727,1.06772 -3.80952,2.57141 -5.71428,3.85711 z"
       id="path12145"
       inkscape:connector-curvature="0" />
    <path
       style="opacity:1;fill:#d5fff6;fill-opacity:1;fill-rule:nonzero;stroke:none;stroke-width:2.44300008;stroke-linecap:round;stroke-linejoin:round;stroke-miterlimit:4;stroke-dasharray:none;stroke-opacity:1"
       d="m 790.61011,179.60508 c 0.5071,36.09119 -0.97123,73.15818 1.57846,108.07177 0.45908,6.28623 0.22548,18.26944 -0.52615,23.41555 -0.82384,5.64051 0,31.7779 0,39.62631 0,6.10389 -1.01878,33.37951 0.52615,36.02391 2.56419,4.389 9.15246,-3.36525 12.10158,0 6.00354,6.85068 13.45716,3.60239 19.99391,3.60239 4.09712,0 18.95721,-2.67509 21.57238,1.80119 1.5338,2.62535 3.41944,1.80119 5.26155,1.80119 0.17538,0 0.52615,-0.60039 0.52615,0 0,0.60042 -0.36928,0.26851 -0.52615,0 -0.75862,-1.29848 -0.91654,-15.33913 -0.52616,-18.01195 1.50587,-10.31012 0.52616,-39.21008 0.52616,-52.23467 0,-11.49739 -1.55444,-61.4052 -0.52616,-68.44545 0.8883,-6.08181 1.05231,-16.35404 1.05231,-23.41554 0,-8.16682 1.35653,-40.38611 0,-45.0299 -0.71181,-2.43676 -4.67759,0.099 -5.7877,-1.8012 -3.32169,-5.68557 -7.29056,-5.27415 -10.52311,-10.80717 -0.80501,-1.37788 -1.54688,0.84653 -2.10463,1.80119 -2.38524,4.08271 -6.5594,-4.0827 -8.94464,0 -1.83466,3.14032 -7.81558,4.29039 -9.99696,1.80119 -2.36936,-2.70368 -6.73109,-3.78883 -8.94464,0 -1.63236,2.79406 -5.98745,0 -7.89233,0 -0.89407,0 -4.55733,-2.04503 -4.7354,-1.80119 -0.72825,0.99721 -1.40308,2.4016 -2.10462,3.60238 z"
       id="path12145-9"
       inkscape:connector-curvature="0" />
    <path
       style="opacity:1;fill:#d5fff6;fill-opacity:1;fill-rule:nonzero;stroke:none;stroke-width:2.44300008;stroke-linecap:round;stroke-linejoin:round;stroke-miterlimit:4;stroke-dasharray:none;stroke-opacity:1"
       d="m 864.89582,180.69945 c 0.55411,36.73896 -1.06127,74.47124 1.7248,110.01147 0.50164,6.39907 0.24638,18.59735 -0.57493,23.83583 -0.90022,5.74174 0,32.34826 0,40.33753 0,6.21344 -1.11323,33.97864 0.57493,36.67048 2.80191,4.46779 10.00097,-3.42563 13.2235,0 6.56012,6.97364 14.70476,3.66706 21.84752,3.66706 4.47696,0 20.71471,-2.72311 23.57233,1.83352 1.676,2.67246 3.73645,1.83351 5.74934,1.83351 0.19164,0 0.57493,-0.61115 0.57493,0 0,0.61119 -0.40351,0.27333 -0.57493,0 -0.82895,-1.32179 -1.00151,-15.61444 -0.57494,-18.33523 1.64548,-10.49518 0.57494,-39.91383 0.57494,-53.17219 0,-11.70376 -1.69855,-62.50733 -0.57494,-69.67394 0.97066,-6.19097 1.14987,-16.64757 1.14987,-23.83583 0,-8.31339 1.48229,-41.11098 0,-45.8381 -0.7778,-2.48051 -5.11124,0.10088 -6.32427,-1.83353 -3.62964,-5.78762 -7.96646,-5.36881 -11.49869,-11.00115 -0.87965,-1.40259 -1.69029,0.86173 -2.29975,1.83354 -2.60637,4.15597 -7.16752,-4.15599 -9.77389,0 -2.00475,3.19666 -8.54015,4.36737 -10.92376,1.8335 -2.58903,-2.75221 -7.35513,-3.85683 -9.77389,0 -1.7837,2.8442 -6.54254,0 -8.62402,0 -0.97696,0 -4.97983,-2.08172 -5.17441,-1.8335 -0.79577,1.0151 -1.53316,2.44468 -2.29974,3.66703 z"
       id="path12145-9-4"
       inkscape:connector-curvature="0" />
  </g>
</svg>
